main.c:95:6:vprint	208	static
main.c:103:6:my_printf	16	static
main.c:180:6:SystemClock_Config	240	static
main.c:116:5:main	104	static
main.c:734:6:HAL_DCMI_FrameEventCallback	8	static
main.c:739:6:HAL_DCMI_LineEventCallback	0	static
main.c:744:6:HAL_DCMI_ErrorCallback	0	static
main.c:754:6:Error_Handler	0	static
