Packet Number,Time,Latitude,Longitude,Altitude,Speed,Temperature,Pressure,Radiation
1.0,55757.0,51.24791,-0.587,59.2,1.2,25.4,1006.7,0.0
2.0,55765.0,51.24792,-0.58706,52.8,1.9,25.4,1006.6,0.0
3.0,55775.0,51.24792,-0.58716,43.7,0.8,25.4,1006.6,0.0
4.0,55785.0,51.24796,-0.58718,46.7,1.1,25.4,1006.7,0.0
5.0,55795.0,51.24792,-0.58718,36.9,0.4,25.4,1006.7,0.0
6.0,55807.0,51.24792,-0.58712,35.0,1.2,25.4,1006.7,0.0
7.0,55817.0,51.24792,-0.58712,35.3,1.0,25.4,1006.6,0.0
8.0,55827.0,51.24796,-0.58712,34.9,0.6,25.4,1006.6,0.0
9.0,55835.0,51.24794,-0.58712,35.3,0.8,25.4,1006.6,0.0
10.0,55845.0,51.24792,-0.58712,38.4,1.0,25.4,1006.6,0.0
11.0,55855.0,51.24796,-0.58708,38.5,1.8,25.4,1006.7,0.0
12.0,55865.0,51.24792,-0.58708,47.5,0.1,25.4,1006.6,0.0
13.0,55875.0,51.24797,-0.58708,48.7,0.6,25.4,1006.5,0.0
14.0,55885.0,51.24799,-0.58706,49.4,0.4,25.4,1006.7,0.0
15.0,55895.0,51.24792,-0.58706,47.4,0.5,25.4,1006.7,0.0
16.0,55905.0,51.24789,-0.58706,53.7,0.9,25.4,1006.7,0.0
17.0,55915.0,51.24788,-0.58706,59.3,0.9,25.4,1006.7,0.0
18.0,55925.0,51.24789,-0.58706,67.6,0.9,25.4,1006.6,0.0
19.0,55935.0,51.24792,-0.58706,64.3,0.8,25.4,1006.7,0.0
20.0,55945.0,51.24799,-0.58706,62.9,2.4,25.4,1006.6,0.0
21.0,55955.0,51.24799,-0.587,67.6,0.9,25.4,1006.7,0.0
22.0,55965.0,51.24797,-0.58694,68.7,1.5,25.4,1006.6,0.0
23.0,55975.0,51.24796,-0.58698,66.1,0.2,25.4,1006.7,0.0
24.0,55985.0,51.24796,-0.58704,64.2,0.6,25.5,1006.7,0.0
25.0,55995.0,51.24796,-0.58706,66.6,0.7,25.5,1006.7,0.0
26.0,56005.0,51.24796,-0.58702,68.6,0.4,25.5,1006.7,0.0
27.0,56015.0,51.24797,-0.58706,66.7,1.3,25.5,1006.6,0.0
28.0,56027.0,51.24797,-0.58706,65.1,0.8,25.5,1006.7,0.0
29.0,56035.0,51.24794,-0.58706,64.3,2.1,25.5,1006.6,0.0
30.0,56045.0,51.24789,-0.58702,68.9,0.6,25.5,1006.7,0.0
31.0,56057.0,51.24792,-0.587,64.5,2.6,25.5,1006.7,0.0
32.0,56067.0,51.24792,-0.587,62.2,1.5,25.5,1006.7,0.0
33.0,56077.0,51.24792,-0.587,60.6,0.4,25.4,1006.7,0.0
34.0,56087.0,51.24791,-0.58704,58.1,0.7,25.4,1006.7,0.0
35.0,56097.0,51.24789,-0.58706,55.5,0.1,25.4,1006.6,0.0
36.0,56107.0,51.24791,-0.58706,52.1,0.5,25.5,1006.7,0.0
37.0,56115.0,51.24791,-0.5871,51.9,3.1,25.5,1006.7,0.0
38.0,56125.0,51.24792,-0.58712,55.2,1.0,25.5,1006.6,0.0
39.0,56137.0,51.24792,-0.58706,56.9,1.4,25.5,1006.7,0.0
40.0,56145.0,51.24791,-0.58706,57.0,2.4,25.5,1006.7,0.0
41.0,56157.0,51.24792,-0.58714,57.2,2.2,25.5,1006.7,0.0
42.0,56165.0,51.24792,-0.58716,59.8,2.2,25.5,1006.7,0.0
43.0,56177.0,51.24792,-0.58718,62.4,0.4,25.5,1006.7,0.0
44.0,56185.0,51.24792,-0.58714,58.5,1.1,25.5,1006.6,0.0
45.0,56195.0,51.24789,-0.587,63.4,1.1,25.5,1006.7,0.0
46.0,56205.0,51.24788,-0.58694,69.1,1.4,25.5,1006.8,0.0
47.0,56215.0,51.24789,-0.58706,69.3,0.9,25.5,1006.7,0.0
48.0,56225.0,51.24789,-0.58722,74.8,2.0,25.5,1006.7,0.0
49.0,56235.0,51.24791,-0.58706,76.2,4.5,25.6,1006.7,0.0
50.0,56245.0,51.24788,-0.58684,71.9,2.6,25.6,1006.8,0.0
51.0,56255.0,51.24785,-0.58684,73.1,0.8,25.6,1006.7,0.0
52.0,56265.0,51.24785,-0.58696,76.1,5.0,25.6,1006.8,0.0
53.0,56275.0,51.24788,-0.5869,76.6,1.3,25.6,1006.8,0.0
54.0,56285.0,51.24789,-0.58686,75.5,0.7,25.6,1006.8,0.0
55.0,56295.0,51.24785,-0.5868,70.4,1.6,25.6,1006.7,0.0
56.0,56305.0,51.24783,-0.58686,76.8,2.6,25.6,1006.8,0.0
57.0,56315.0,51.24785,-0.58686,81.7,1.7,25.6,1006.7,0.0
58.0,56325.0,51.24785,-0.5868,80.2,0.7,25.6,1006.8,0.0
59.0,56335.0,51.24785,-0.58688,77.1,2.2,25.6,1006.8,0.0
60.0,56345.0,51.24785,-0.5869,79.3,2.7,25.6,1006.7,0.0
61.0,56355.0,51.24789,-0.58702,78.4,3.0,25.6,1006.7,0.0
62.0,56365.0,51.24788,-0.58696,76.5,0.4,25.7,1006.8,0.0
63.0,56375.0,51.24782,-0.58694,80.2,0.6,25.6,1006.7,0.0
64.0,56385.0,51.24783,-0.587,82.2,1.1,25.6,1006.7,0.0
65.0,56397.0,51.24785,-0.587,81.0,0.7,25.6,1006.8,0.0
66.0,56407.0,51.24783,-0.58688,81.4,2.0,25.6,1006.8,0.0
67.0,56417.0,51.24785,-0.58686,80.0,0.4,25.6,1006.8,0.0
68.0,56427.0,51.24786,-0.58686,78.3,0.5,25.6,1006.9,0.0
69.0,56435.0,51.24786,-0.58688,74.5,0.7,25.7,1006.8,0.0
70.0,56445.0,51.24789,-0.58696,65.0,0.7,25.7,1006.9,0.0
71.0,56455.0,51.24789,-0.58706,56.8,2.5,25.7,1006.9,0.0
72.0,56465.0,51.24789,-0.58706,57.1,0.8,25.7,1006.8,0.0
73.0,56477.0,51.24789,-0.58706,52.5,0.6,25.7,1006.8,0.0
74.0,56487.0,51.24792,-0.58706,48.8,0.7,25.7,1006.8,0.0
75.0,56497.0,51.24791,-0.58704,50.3,0.4,25.7,1006.8,0.0
76.0,56505.0,51.24792,-0.58706,50.0,4.1,25.7,1006.9,0.0
77.0,56515.0,51.24792,-0.58708,44.8,0.8,25.7,1006.9,0.0
78.0,56525.0,51.24788,-0.5871,49.4,0.6,25.7,1006.9,0.0
79.0,56537.0,51.24792,-0.58706,49.9,1.1,25.7,1006.7,0.0
80.0,56547.0,51.24792,-0.58702,50.9,0.4,25.7,1006.8,0.0
81.0,56557.0,51.24792,-0.587,51.6,0.9,25.7,1006.9,0.0
82.0,56567.0,51.24792,-0.587,50.4,1.2,25.6,1006.8,0.0
83.0,56577.0,51.24792,-0.58706,48.3,2.0,25.6,1006.8,0.0
84.0,56587.0,51.24792,-0.5871,46.0,0.6,25.6,1006.8,0.0
85.0,56597.0,51.24792,-0.58712,46.4,1.2,25.6,1006.9,0.0
86.0,56607.0,51.24792,-0.5871,48.2,0.2,25.6,1007.0,0.0
87.0,56617.0,51.24792,-0.58712,50.8,1.1,25.6,1006.8,0.0
88.0,56627.0,51.24792,-0.5871,52.4,0.4,25.6,1006.9,0.0
89.0,56637.0,51.24792,-0.58706,55.0,0.6,25.6,1006.8,0.0
90.0,56647.0,51.24792,-0.5871,55.6,0.5,25.6,1006.8,0.0
91.0,56657.0,51.24792,-0.58712,58.7,2.5,25.6,1006.9,0.0
92.0,56667.0,51.24792,-0.5871,55.3,0.5,25.6,1006.8,0.0
93.0,56675.0,51.24792,-0.58706,52.6,1.8,25.6,1006.9,0.0
94.0,56685.0,51.24794,-0.58716,47.4,2.4,25.6,1006.8,0.0
95.0,56695.0,51.24786,-0.58698,64.6,2.9,25.6,1006.8,0.0
96.0,56705.0,51.24792,-0.58696,62.7,0.8,25.6,1006.9,0.0
97.0,56715.0,51.24792,-0.58702,62.2,2.0,25.6,1006.8,0.0
98.0,56725.0,51.24792,-0.58706,59.1,0.7,25.6,1006.8,0.0
99.0,56735.0,51.24794,-0.5868,72.0,4.8,25.5,1006.8,0.0
100.0,56745.0,51.24797,-0.58692,65.8,1.4,25.6,1006.9,0.0
101.0,56757.0,51.24792,-0.5869,69.0,0.8,25.6,1006.9,0.0
102.0,56765.0,51.24791,-0.58692,69.5,2.0,25.6,1006.8,0.0
103.0,56775.0,51.24791,-0.587,62.4,0.7,25.5,1006.9,0.0
104.0,56785.0,51.24789,-0.58698,61.2,0.5,25.6,1006.8,0.0
105.0,56795.0,51.24792,-0.58714,55.3,0.6,25.6,1006.8,0.0
106.0,56805.0,51.24791,-0.58704,60.9,0.8,25.6,1006.8,0.0
107.0,56815.0,51.24792,-0.58706,55.8,0.7,25.6,1006.9,0.0
108.0,56825.0,51.24792,-0.58696,59.8,1.6,25.5,1006.8,0.0
109.0,56835.0,51.24791,-0.58692,65.8,1.0,25.5,1006.7,0.0
110.0,56845.0,51.24792,-0.587,58.8,1.2,25.5,1006.9,0.0
111.0,56855.0,51.24792,-0.5871,53.2,1.6,25.5,1006.9,0.0
112.0,56865.0,51.24792,-0.58712,54.6,0.8,25.5,1006.8,0.0
113.0,56875.0,51.24792,-0.58706,57.7,0.5,25.5,1006.8,0.0
114.0,56885.0,51.24789,-0.58706,54.7,1.5,25.5,1006.9,0.0
115.0,56895.0,51.24789,-0.58712,58.1,0.4,25.5,1006.8,0.0
116.0,56905.0,51.24789,-0.58712,66.4,0.3,25.5,1006.8,0.0
117.0,56915.0,51.24788,-0.58706,68.5,0.8,25.5,1006.8,0.0
118.0,56925.0,51.24789,-0.58706,66.6,0.3,25.5,1006.8,0.0
119.0,56935.0,51.24788,-0.58706,67.8,1.8,25.5,1006.9,0.0
120.0,56945.0,51.24788,-0.58712,64.8,1.1,25.5,1006.9,0.0
121.0,56955.0,51.24789,-0.58714,61.1,0.8,25.5,1006.9,0.0
122.0,56965.0,51.24792,-0.58714,62.6,0.5,25.5,1006.7,0.0
123.0,56975.0,51.24792,-0.58712,64.8,3.0,25.5,1006.9,0.0
124.0,56985.0,51.24797,-0.58712,60.1,0.3,25.5,1006.9,0.0
125.0,56995.0,51.24797,-0.58718,60.8,1.2,25.5,1006.9,0.0
126.0,57007.0,51.24794,-0.58714,65.1,2.3,25.5,1006.8,0.0
127.0,57017.0,51.24792,-0.58714,65.3,0.3,25.5,1006.9,0.0
128.0,57027.0,51.24792,-0.58712,65.2,0.4,25.6,1007.0,0.0
129.0,57035.0,51.24792,-0.58714,65.4,0.9,25.6,1006.5,0.0
130.0,57045.0,51.24796,-0.58718,64.9,0.7,25.6,1006.9,0.0
131.0,57055.0,51.24792,-0.58716,69.3,0.6,25.6,1006.9,0.0
132.0,57065.0,51.24789,-0.58716,74.5,0.8,25.6,1007.0,0.0
133.0,57075.0,51.24789,-0.58712,70.2,0.2,25.6,1007.0,0.0
134.0,57085.0,51.24792,-0.5871,68.3,1.3,25.6,1006.9,0.0
135.0,57100.0,51.24792,-0.58704,67.3,0.7,25.6,1006.8,0.0
136.0,57110.0,51.24786,-0.58706,69.6,1.5,25.6,1007.0,0.0
137.0,57120.0,51.24789,-0.58702,69.6,0.8,25.6,1006.9,0.0
138.0,57130.0,51.24788,-0.587,73.2,1.0,25.6,1007.0,0.0
139.0,57140.0,51.24791,-0.58706,68.9,0.4,25.6,1007.0,0.0
140.0,57150.0,51.24789,-0.58704,65.6,1.6,25.6,1006.8,0.0
141.0,57160.0,51.24792,-0.58706,61.2,0.5,25.6,1007.0,0.0
142.0,57170.0,51.24792,-0.58712,59.5,0.5,25.6,1007.0,0.0
143.0,57180.0,51.24796,-0.58712,54.1,1.1,25.6,1007.0,0.0
144.0,57190.0,51.24794,-0.58714,52.8,0.3,25.6,1007.0,0.0
145.0,57200.0,51.24792,-0.58718,53.9,1.0,25.6,1007.1,0.0
146.0,57210.0,51.24796,-0.58712,55.9,1.1,25.6,1007.0,0.0
147.0,57220.0,51.24797,-0.58714,56.8,0.3,25.6,1007.0,0.0
148.0,57230.0,51.24799,-0.58712,54.5,1.0,25.6,1007.1,0.0
149.0,57240.0,51.24796,-0.58706,60.2,0.5,25.6,1007.0,0.0
150.0,57250.0,51.24797,-0.58708,61.7,1.1,25.6,1007.0,0.0
151.0,57260.0,51.24797,-0.58712,61.8,0.3,25.6,1007.0,0.0
152.0,57270.0,51.24796,-0.58712,62.3,1.5,25.6,1007.0,0.0
153.0,57280.0,51.24791,-0.5871,66.0,4.2,25.6,1007.0,0.0
154.0,57290.0,51.24796,-0.58706,68.3,2.1,25.6,1007.0,0.0
155.0,57300.0,51.24792,-0.58706,68.7,0.2,25.6,1007.0,0.0
156.0,57310.0,51.24792,-0.58712,67.3,0.8,25.6,1007.1,0.0
157.0,57320.0,51.24796,-0.58712,61.7,1.1,25.6,1007.2,0.0
158.0,57330.0,51.24792,-0.58712,62.8,0.5,25.6,1007.0,0.0
159.0,57340.0,51.24792,-0.58714,62.1,0.0,25.6,1007.1,0.0
160.0,57350.0,51.24791,-0.58714,60.0,0.8,25.6,1007.0,0.0
161.0,57360.0,51.24791,-0.58718,58.4,0.6,25.7,1007.1,0.0
162.0,57370.0,51.24792,-0.5871,69.0,1.1,25.7,1007.0,0.0
163.0,57380.0,51.24796,-0.58712,67.9,1.5,25.7,1007.0,0.0
164.0,57390.0,51.24797,-0.58708,73.9,2.7,25.7,1007.1,0.0
165.0,57400.0,51.24794,-0.58706,72.7,0.2,25.7,1007.1,0.0
166.0,57410.0,51.24792,-0.58706,71.1,1.3,25.7,1006.9,0.0
167.0,57420.0,51.24788,-0.58708,71.7,1.8,25.7,1007.0,0.0
168.0,57430.0,51.24789,-0.58706,71.6,0.5,25.7,1007.0,0.0
169.0,57440.0,51.24789,-0.58712,64.4,0.3,25.7,1007.0,0.0
170.0,57450.0,51.24792,-0.58712,58.2,0.7,25.7,1007.0,0.0
171.0,57460.0,51.24796,-0.5871,56.2,0.9,25.7,1007.1,0.0
172.0,57470.0,51.24792,-0.58708,63.5,0.4,25.7,1007.0,0.0
173.0,57480.0,51.24797,-0.58706,73.2,3.0,25.7,1007.0,0.0
174.0,57490.0,51.24794,-0.58712,71.4,0.3,25.7,1007.0,0.0
175.0,57500.0,51.24794,-0.58716,65.6,0.3,25.7,1007.1,0.0
176.0,57510.0,51.24792,-0.58712,60.9,0.3,25.7,1007.1,0.0
177.0,57520.0,51.24792,-0.58714,59.1,0.5,25.6,1007.0,0.0
178.0,57530.0,51.24792,-0.58718,50.7,0.5,25.6,1007.0,0.0
179.0,57540.0,51.24792,-0.58718,53.7,0.8,25.6,1007.0,0.0
180.0,57550.0,51.24792,-0.58718,54.4,0.5,25.6,1007.0,0.0
181.0,57560.0,51.24794,-0.58714,55.1,0.7,25.6,1007.0,0.0
182.0,57570.0,51.24792,-0.58712,54.6,0.5,25.6,1007.0,0.0
183.0,57580.0,51.24794,-0.5871,56.9,0.6,25.6,1007.0,0.0
184.0,57590.0,51.24792,-0.58712,51.9,0.6,25.6,1007.1,0.0
185.0,57600.0,51.24792,-0.58718,43.4,0.9,25.6,1007.0,0.0
186.0,57610.0,51.24792,-0.58718,45.7,0.4,25.6,1006.9,0.0
187.0,57620.0,51.24792,-0.58718,45.7,0.5,25.6,1007.2,0.0
188.0,57630.0,51.24792,-0.58716,46.0,1.0,25.6,1007.0,0.0
189.0,57640.0,51.24792,-0.58714,50.5,2.1,25.6,1007.0,0.0
190.0,57650.0,51.24797,-0.58712,52.7,0.4,25.6,1007.1,0.0
191.0,57660.0,51.24799,-0.58706,57.7,1.3,25.6,1007.0,0.0
192.0,57670.0,51.24794,-0.58696,67.0,1.4,25.6,1007.1,0.0
193.0,57680.0,51.24796,-0.587,67.5,0.7,25.6,1007.2,0.0
194.0,57690.0,51.24796,-0.587,72.9,1.9,25.6,1007.1,0.0
195.0,57700.0,51.24794,-0.5871,74.0,0.9,25.6,1007.1,0.0
196.0,57710.0,51.24796,-0.58706,82.6,0.3,25.6,1007.1,0.0
197.0,57720.0,51.24797,-0.58704,85.6,0.8,25.6,1006.9,0.0
198.0,57730.0,51.24799,-0.58706,87.0,1.5,25.6,1007.1,0.0
199.0,57740.0,51.24797,-0.58706,87.1,0.5,25.6,1007.0,0.0
200.0,57750.0,51.24797,-0.58712,86.1,1.3,25.6,1007.1,0.0
201.0,57760.0,51.24797,-0.58718,83.6,0.9,25.6,1007.0,0.0
202.0,57770.0,51.24797,-0.58712,80.5,1.8,25.6,1007.1,0.0
203.0,57780.0,51.24794,-0.58704,79.1,2.4,25.6,1007.1,0.0
204.0,57790.0,51.24799,-0.58702,70.2,0.8,25.6,1007.2,0.0
205.0,57800.0,51.24802,-0.58702,57.7,2.7,25.6,1007.1,0.0
206.0,57810.0,51.24805,-0.587,59.6,1.5,25.6,1007.1,0.0
207.0,57820.0,51.24799,-0.58706,63.5,1.3,25.6,1007.1,0.0
208.0,57830.0,51.24797,-0.58708,62.9,0.4,25.6,1007.1,0.0
209.0,57840.0,51.24796,-0.58706,64.1,1.2,25.6,1007.2,0.0
210.0,57850.0,51.24799,-0.58712,67.4,3.5,25.6,1007.0,0.0
211.0,57860.0,51.24803,-0.58704,63.3,1.7,25.6,1007.2,0.0
212.0,57870.0,51.248,-0.58706,62.8,0.8,25.6,1007.2,0.0
213.0,57880.0,51.24802,-0.58706,68.2,0.7,25.6,1007.2,0.0
214.0,57890.0,51.24803,-0.58704,63.1,1.5,25.6,1007.2,0.0
215.0,57900.0,51.24799,-0.5871,64.6,4.0,25.6,1007.2,0.0
216.0,57910.0,51.24797,-0.58704,69.1,1.0,25.6,1007.2,0.0
217.0,57920.0,51.24794,-0.58706,69.2,0.2,25.6,1007.2,0.0
218.0,57930.0,51.24792,-0.58706,65.8,0.3,25.6,1007.2,0.0
219.0,57940.0,51.24792,-0.58706,64.0,0.3,25.6,1007.2,0.0
220.0,57950.0,51.24792,-0.58708,60.4,2.1,25.6,1007.2,0.0
221.0,57960.0,51.24792,-0.5871,58.6,0.1,25.6,1007.1,0.0
222.0,57970.0,51.24792,-0.58712,61.6,0.9,25.6,1007.2,0.0
223.0,57980.0,51.24792,-0.58714,64.0,1.7,25.6,1007.2,0.0
224.0,57990.0,51.24797,-0.58706,68.2,1.4,25.6,1007.2,0.0
225.0,58000.0,51.24792,-0.58706,71.3,1.4,25.6,1007.2,0.0
226.0,58010.0,51.24792,-0.58706,68.3,0.3,25.6,1007.2,0.0
227.0,58020.0,51.24794,-0.5871,69.0,1.0,25.6,1007.4,0.0
228.0,58030.0,51.24792,-0.5871,71.7,1.6,25.6,1007.1,0.0
229.0,58040.0,51.24797,-0.58708,76.7,0.8,25.7,1007.3,0.0
230.0,58050.0,51.24799,-0.5871,78.4,0.1,25.7,1007.1,0.0
231.0,58060.0,51.24799,-0.58708,76.4,1.1,25.6,1007.3,0.0
232.0,58070.0,51.24796,-0.58708,73.5,1.8,25.7,1007.0,0.0
233.0,58080.0,51.24797,-0.58712,72.7,0.4,25.7,1007.2,0.0
234.0,58090.0,51.24797,-0.5871,73.8,0.4,25.7,1007.2,0.0
235.0,58100.0,51.24794,-0.58706,72.1,0.9,25.7,1007.3,0.0
236.0,58110.0,51.24792,-0.58704,73.1,0.9,25.7,1007.3,0.0
237.0,58120.0,51.24792,-0.58704,74.5,0.3,25.7,1007.2,0.0
238.0,58130.0,51.24796,-0.58706,72.8,1.7,25.7,1007.3,0.0
239.0,58140.0,51.24796,-0.58708,74.5,1.8,25.7,1007.3,0.0
240.0,58150.0,51.24799,-0.58714,65.6,1.2,25.7,1007.2,0.0
241.0,58160.0,51.248,-0.58712,69.7,0.5,25.7,1007.3,0.0
242.0,58170.0,51.24799,-0.58718,73.0,0.8,25.7,1007.2,0.0
243.0,58180.0,51.24797,-0.58718,70.7,0.8,25.7,1007.2,0.0
244.0,58190.0,51.24805,-0.5871,59.5,1.3,25.7,1007.3,0.0
245.0,58200.0,51.24799,-0.58712,61.5,0.8,25.7,1007.2,0.0
246.0,58210.0,51.24799,-0.58712,67.1,0.2,25.7,1007.3,0.0
247.0,58220.0,51.248,-0.5871,68.5,0.7,25.7,1007.3,0.0
248.0,58230.0,51.24799,-0.5871,68.7,1.0,25.7,1007.3,0.0
249.0,58240.0,51.24799,-0.5871,68.1,0.5,25.7,1007.2,0.0
250.0,58250.0,51.248,-0.58712,70.0,0.9,25.7,1007.2,0.0
251.0,58260.0,51.24799,-0.58712,75.6,2.0,25.7,1007.3,0.0
252.0,58270.0,51.248,-0.58706,81.6,1.0,25.7,1007.2,0.0
253.0,58280.0,51.24797,-0.58702,72.3,1.3,25.7,1007.2,0.0
254.0,58290.0,51.24789,-0.58712,65.5,3.9,25.7,1007.3,0.0
255.0,58300.0,51.24788,-0.58722,56.8,0.8,25.7,1007.2,0.0
256.0,58310.0,51.24796,-0.58712,59.9,0.8,25.7,1007.2,0.0
257.0,58320.0,51.24797,-0.58718,57.9,0.7,25.7,1007.2,0.0
258.0,58330.0,51.24797,-0.58708,63.6,1.5,25.7,1007.2,0.0
259.0,58340.0,51.248,-0.58704,57.2,0.5,25.7,1007.2,0.0
260.0,58350.0,51.24799,-0.5871,59.2,0.1,25.7,1007.2,0.0
261.0,58360.0,51.24799,-0.58716,54.7,1.0,25.7,1007.2,0.0
262.0,58370.0,51.24792,-0.58722,52.7,5.0,25.7,1007.2,0.0
263.0,58380.0,51.24794,-0.58712,57.3,1.1,25.7,1007.1,0.0
264.0,58390.0,51.24796,-0.58706,61.9,0.2,25.7,1007.1,0.0
265.0,58400.0,51.24799,-0.58708,59.1,1.8,25.7,1007.2,0.0
266.0,58410.0,51.24797,-0.58706,60.2,1.4,25.7,1007.2,0.0
267.0,58420.0,51.24792,-0.58714,71.1,4.9,25.7,1007.2,0.0
268.0,58430.0,51.24796,-0.58712,75.7,0.8,25.7,1007.2,0.0
269.0,58440.0,51.24792,-0.58714,82.8,1.0,25.7,1007.2,0.0
270.0,58450.0,51.24797,-0.5871,73.5,2.6,25.7,1007.2,0.0
271.0,58460.0,51.24802,-0.587,69.6,1.4,25.7,1007.2,0.0
272.0,58470.0,51.248,-0.58706,70.3,0.5,25.7,1007.2,0.0
273.0,58480.0,51.24802,-0.58706,62.4,0.5,25.7,1007.3,0.0
274.0,58490.0,51.24799,-0.58708,63.3,0.5,25.7,1007.2,0.0
275.0,58500.0,51.24797,-0.58712,64.2,2.6,25.7,1007.2,0.0
276.0,58510.0,51.24797,-0.58712,65.4,1.5,25.7,1007.3,0.0
277.0,58520.0,51.24797,-0.58712,63.6,0.9,25.8,1007.4,0.0
278.0,58530.0,51.24797,-0.58712,63.3,0.8,25.7,1007.2,0.0
279.0,58540.0,51.24796,-0.58712,61.1,0.3,25.7,1007.3,0.0
280.0,58550.0,51.24796,-0.58714,59.5,2.8,25.7,1007.3,0.0
281.0,58560.0,51.24799,-0.58712,61.3,0.7,25.7,1007.3,0.0
282.0,58570.0,51.24806,-0.58712,66.9,1.5,25.7,1007.3,0.0
283.0,58580.0,51.248,-0.58712,63.7,0.9,25.7,1007.4,0.0
284.0,58590.0,51.24792,-0.58712,72.3,3.3,25.7,1007.3,0.0
285.0,58600.0,51.24797,-0.58716,71.8,1.8,25.7,1007.3,0.0
286.0,58610.0,51.24797,-0.5871,81.0,0.4,25.6,1007.4,0.0
287.0,58620.0,51.24796,-0.58708,75.9,0.3,25.6,1007.3,0.0
288.0,58630.0,51.24799,-0.5871,76.6,0.1,25.6,1007.3,0.0
289.0,58640.0,51.248,-0.58712,79.2,0.6,25.6,1007.3,0.0
290.0,58650.0,51.248,-0.5871,79.8,1.3,25.6,1007.1,0.0
291.0,58660.0,51.24802,-0.58714,79.0,1.1,25.6,1007.1,0.0
292.0,58670.0,51.248,-0.58718,77.4,0.7,25.6,1007.2,0.0
293.0,58680.0,51.24797,-0.5871,72.7,1.1,25.6,1007.2,0.0
294.0,58690.0,51.24802,-0.58706,68.9,0.9,25.7,1007.3,0.0
295.0,58700.0,51.248,-0.58704,66.7,0.4,25.7,1007.3,0.0
296.0,58710.0,51.248,-0.58706,69.6,0.8,25.7,1007.3,0.0
297.0,58720.0,51.24792,-0.58712,77.1,2.3,25.7,1007.3,0.0
298.0,58730.0,51.24796,-0.58712,76.9,1.3,25.7,1007.3,0.0
299.0,58740.0,51.24796,-0.58708,71.9,0.6,25.7,1007.3,0.0
300.0,58750.0,51.24796,-0.58712,65.8,0.5,25.7,1007.3,0.0
301.0,58760.0,51.24796,-0.5871,64.8,1.1,25.6,1007.3,0.0
302.0,58770.0,51.24797,-0.5871,63.2,0.5,25.6,1007.3,0.0
303.0,58780.0,51.24796,-0.58706,50.7,1.8,25.6,1007.3,0.0
304.0,58790.0,51.248,-0.58706,55.1,1.5,25.6,1007.2,0.0
305.0,58800.0,51.24802,-0.58712,57.7,1.7,25.6,1007.3,0.0
306.0,58810.0,51.24802,-0.58708,54.4,1.1,25.6,1007.3,0.0
307.0,58820.0,51.24799,-0.5871,52.7,0.9,25.6,1007.3,0.0
308.0,58830.0,51.24797,-0.5871,48.8,1.2,25.6,1007.3,0.0
309.0,58840.0,51.24799,-0.5871,56.8,1.9,25.6,1007.4,0.0
310.0,58850.0,51.24799,-0.58712,53.6,0.5,25.6,1007.3,0.0
311.0,58860.0,51.24792,-0.58716,51.3,5.5,25.6,1007.2,0.0
312.0,58870.0,51.24791,-0.58708,55.5,4.3,25.6,1007.4,0.0
313.0,58880.0,51.24788,-0.58712,49.9,1.5,25.6,1007.3,0.0
314.0,58890.0,51.24789,-0.58712,50.8,1.9,25.6,1007.3,0.0
315.0,58900.0,51.24789,-0.58712,47.4,0.5,25.6,1007.3,0.0
316.0,58910.0,51.24792,-0.58712,45.9,0.5,25.6,1007.3,0.0
317.0,58920.0,51.24794,-0.58712,46.4,0.7,25.6,1007.3,0.0
318.0,58930.0,51.24796,-0.58714,47.8,2.0,25.6,1007.3,0.0
319.0,58940.0,51.24796,-0.58714,49.6,1.9,25.6,1007.3,0.0
320.0,58950.0,51.24796,-0.58712,45.0,0.6,25.6,1007.4,0.0
321.0,58960.0,51.24799,-0.5871,41.3,0.5,25.6,1007.4,0.0
322.0,58970.0,51.24797,-0.58712,43.6,0.4,25.6,1007.4,0.0
323.0,58980.0,51.24799,-0.58712,47.4,0.6,25.6,1007.3,0.0
324.0,58990.0,51.248,-0.58712,51.2,0.9,25.6,1007.5,0.0
325.0,59000.0,51.24802,-0.5871,59.7,0.4,25.6,1007.4,0.0
326.0,59010.0,51.24803,-0.58704,59.0,0.6,25.6,1007.3,0.0
327.0,59020.0,51.24791,-0.58718,55.8,3.9,25.6,1007.4,0.0
328.0,59030.0,51.24794,-0.58718,57.2,1.6,25.5,1007.4,0.0
329.0,59040.0,51.24796,-0.58712,57.7,1.3,25.5,1007.4,0.0
330.0,59050.0,51.24794,-0.58708,58.3,0.7,25.5,1007.5,0.0
331.0,59060.0,51.24799,-0.58706,58.2,0.2,25.5,1007.4,0.0
332.0,59070.0,51.248,-0.58706,58.4,1.2,25.5,1007.4,0.0
333.0,59080.0,51.24799,-0.58704,67.4,1.6,25.5,1007.4,0.0
334.0,59090.0,51.24796,-0.58706,70.2,1.8,25.5,1007.5,0.0
335.0,59100.0,51.24792,-0.5871,62.9,0.6,25.5,1007.3,0.0
336.0,59110.0,51.248,-0.58708,66.1,1.8,25.5,1007.4,0.0
337.0,59120.0,51.24797,-0.58708,61.7,0.1,25.5,1007.3,0.0
338.0,59130.0,51.248,-0.58708,58.1,0.7,25.5,1007.3,0.0
339.0,59140.0,51.248,-0.58708,57.1,0.9,25.5,1007.4,0.0
340.0,59150.0,51.24803,-0.58714,58.7,1.8,25.5,1007.3,0.0
341.0,59160.0,51.24802,-0.58716,53.9,0.4,25.6,1007.4,0.0
342.0,59170.0,51.24799,-0.58718,48.9,0.5,25.6,1007.4,0.0
343.0,59180.0,51.24797,-0.58726,43.9,1.3,25.6,1007.5,0.0
344.0,59190.0,51.24799,-0.58724,49.7,1.0,25.6,1007.4,0.0
345.0,59200.0,51.248,-0.58712,57.6,0.7,25.6,1007.4,0.0
346.0,59210.0,51.248,-0.5871,60.1,0.8,25.6,1007.4,0.0
347.0,59220.0,51.248,-0.58708,59.5,1.6,25.6,1007.4,0.0
348.0,59230.0,51.24808,-0.58702,69.5,0.2,25.5,1007.4,0.0
349.0,59240.0,51.24808,-0.58704,67.3,1.6,25.5,1007.5,0.0
350.0,59250.0,51.24811,-0.58702,65.5,1.1,25.5,1007.5,0.0
351.0,59260.0,51.24805,-0.587,65.3,2.0,25.5,1007.4,0.0
352.0,59270.0,51.24802,-0.58706,66.0,0.8,25.5,1007.5,0.0
353.0,59280.0,51.24802,-0.58708,65.4,1.1,25.5,1007.5,0.0
354.0,59290.0,51.248,-0.58708,63.3,0.8,25.5,1007.5,0.0
355.0,59300.0,51.248,-0.58706,62.0,1.9,25.5,1007.5,0.0
356.0,59310.0,51.24805,-0.58712,59.6,0.7,25.5,1007.4,0.0
357.0,59320.0,51.248,-0.58704,58.4,1.4,25.5,1007.5,0.0
358.0,59330.0,51.24809,-0.587,67.6,2.6,25.5,1007.5,0.0
359.0,59340.0,51.24802,-0.587,67.4,0.5,25.5,1007.5,0.0
360.0,59350.0,51.24803,-0.58704,64.4,1.3,25.5,1007.4,0.0
361.0,59360.0,51.24802,-0.587,65.1,2.0,25.5,1007.4,0.0
362.0,59370.0,51.24805,-0.58704,66.0,1.7,25.5,1007.3,0.0
363.0,59380.0,51.24799,-0.58708,68.0,1.1,25.5,1007.4,0.0
364.0,59390.0,51.248,-0.58706,61.4,1.7,25.5,1007.5,0.0
365.0,59400.0,51.24788,-0.58712,65.7,6.2,25.5,1007.4,0.0
366.0,59410.0,51.24792,-0.58708,68.3,0.8,25.5,1007.5,0.0
367.0,59420.0,51.24796,-0.58708,67.6,1.1,25.5,1007.5,0.0
368.0,59430.0,51.24796,-0.5871,64.5,0.8,25.5,1007.5,0.0
369.0,59440.0,51.24797,-0.58712,62.9,0.5,25.5,1007.5,0.0
370.0,59450.0,51.24797,-0.58712,60.0,1.2,25.5,1007.5,0.0
371.0,59460.0,51.248,-0.58706,55.0,0.6,25.5,1007.4,0.0
372.0,59470.0,51.24799,-0.58706,59.6,1.2,25.5,1007.5,0.0
373.0,59480.0,51.24797,-0.58708,63.7,0.4,25.5,1007.5,0.0
374.0,59490.0,51.24797,-0.5871,61.0,1.4,25.5,1007.6,0.0
375.0,59500.0,51.24794,-0.58706,53.1,0.4,25.5,1007.5,0.0
376.0,59510.0,51.24802,-0.58708,53.5,7.9,25.5,1007.6,0.0
377.0,59520.0,51.24806,-0.58702,52.7,1.4,25.5,1007.5,0.0
378.0,59530.0,51.24802,-0.58706,56.8,1.7,25.6,1007.5,0.0
379.0,59540.0,51.24805,-0.58712,55.7,3.1,25.6,1007.5,0.0
380.0,59550.0,51.24808,-0.58712,59.1,1.9,25.6,1007.5,0.0
381.0,59560.0,51.24805,-0.5871,56.6,0.6,25.6,1007.6,0.0
382.0,59570.0,51.24814,-0.58702,59.0,12.2,25.6,1007.6,0.0
383.0,59580.0,51.24811,-0.58704,58.4,1.0,25.6,1007.5,0.0
384.0,59590.0,51.24805,-0.58706,57.2,1.0,25.6,1007.4,0.0
385.0,59600.0,51.24802,-0.5871,56.2,0.5,25.6,1007.5,0.0
386.0,59610.0,51.24799,-0.5871,54.7,0.3,25.6,1007.5,0.0
387.0,59620.0,51.24799,-0.58712,54.1,0.7,25.6,1007.5,0.0
388.0,59630.0,51.24806,-0.58718,53.1,2.0,25.6,1007.6,0.0
389.0,59640.0,51.24809,-0.58712,58.3,0.8,25.6,1007.6,0.0
390.0,59650.0,51.24806,-0.58704,61.4,2.8,25.7,1007.6,0.0
391.0,59660.0,51.24802,-0.58712,55.8,7.0,25.7,1007.6,0.0
392.0,59670.0,51.24809,-0.58714,61.7,1.2,25.7,1007.5,0.0
393.0,59680.0,51.248,-0.5871,57.1,0.3,25.7,1007.5,0.0
394.0,59690.0,51.24799,-0.58708,62.4,1.2,25.7,1007.6,0.0
395.0,59700.0,51.24802,-0.58706,69.6,0.3,25.7,1007.6,0.0
396.0,59710.0,51.24802,-0.58706,63.3,0.8,25.7,1007.7,0.0
397.0,59720.0,51.24797,-0.58708,58.3,0.5,25.7,1007.6,0.0
398.0,59730.0,51.24799,-0.58698,59.5,0.8,25.7,1007.6,0.0
399.0,59740.0,51.24799,-0.58702,62.3,0.7,25.7,1007.7,0.0
400.0,59750.0,51.24796,-0.58708,65.5,0.8,25.7,1007.6,0.0
401.0,59760.0,51.24794,-0.5871,67.0,2.3,25.7,1007.6,0.0
402.0,59770.0,51.24792,-0.58712,65.1,0.9,25.7,1007.6,0.0
403.0,59780.0,51.248,-0.58714,59.4,1.7,25.7,1007.6,0.0
404.0,59790.0,51.24797,-0.58714,50.9,5.6,25.7,1007.6,0.0
405.0,59800.0,51.24786,-0.58724,62.3,12.3,25.7,1007.7,0.0
406.0,59810.0,51.24785,-0.5872,64.0,1.7,25.7,1007.8,0.0
407.0,59820.0,51.24786,-0.58712,66.0,0.9,25.7,1007.7,0.0
408.0,59830.0,51.24789,-0.5871,62.3,1.8,25.7,1007.7,0.0
409.0,59840.0,51.248,-0.58718,63.3,2.5,25.7,1007.6,0.0
410.0,59850.0,51.24797,-0.58716,65.8,0.8,25.7,1007.9,0.0
411.0,59860.0,51.24799,-0.58716,67.6,0.1,25.7,1007.7,0.0
412.0,59870.0,51.24797,-0.58712,65.8,0.5,25.7,1007.7,0.0
413.0,59880.0,51.24796,-0.58712,65.6,1.2,25.8,1007.8,0.0
414.0,59890.0,51.24789,-0.58712,59.7,2.9,25.8,1007.6,0.0
415.0,59900.0,51.24786,-0.58712,60.5,0.5,25.8,1007.7,0.0
416.0,59910.0,51.2478,-0.58718,65.4,2.2,25.8,1007.7,0.0
417.0,59920.0,51.24785,-0.58716,67.1,1.0,25.8,1007.7,0.0
418.0,59930.0,51.24792,-0.58712,73.9,1.3,25.8,1007.7,0.0
419.0,59940.0,51.24792,-0.58712,78.6,0.6,25.8,1007.8,0.0
420.0,59950.0,51.24799,-0.58708,75.8,1.3,25.8,1007.6,0.0
421.0,59960.0,51.24812,-0.5871,80.0,2.3,25.8,1007.7,0.0
422.0,59970.0,51.24808,-0.58714,84.7,1.1,25.8,1007.9,0.0
423.0,59980.0,51.24802,-0.58718,82.4,1.1,25.8,1007.6,0.0
424.0,59990.0,51.248,-0.58718,77.0,0.5,25.8,1007.8,0.0
425.0,60000.0,51.24805,-0.58718,72.5,1.2,25.8,1007.9,0.0
426.0,60010.0,51.24799,-0.58716,71.4,3.8,25.8,1007.8,0.0
427.0,60020.0,51.24799,-0.58718,68.1,0.6,25.8,1007.8,0.0
428.0,60030.0,51.24799,-0.58716,64.9,0.3,25.8,1007.8,0.0
429.0,60040.0,51.24806,-0.58716,65.9,3.1,25.8,1007.8,0.0
430.0,60050.0,51.248,-0.58712,64.7,1.6,25.8,1007.7,0.0
431.0,60060.0,51.24799,-0.58714,64.6,1.8,25.8,1007.7,0.0
432.0,60070.0,51.24803,-0.58716,67.1,0.7,25.8,1007.8,0.0
433.0,60080.0,51.24802,-0.58716,59.6,0.6,25.8,1007.8,0.0
434.0,60090.0,51.24805,-0.58708,62.4,1.1,25.8,1007.9,0.0
435.0,60100.0,51.24796,-0.5871,69.3,2.3,25.8,1007.7,0.0
436.0,60110.0,51.24796,-0.58716,66.5,0.8,25.8,1007.8,0.0
437.0,60120.0,51.24791,-0.5871,60.9,1.0,25.8,1007.8,0.0
438.0,60130.0,51.24796,-0.58712,59.4,1.3,25.8,1007.8,0.0
439.0,60140.0,51.24794,-0.58712,59.2,0.8,25.7,1007.7,0.0
440.0,60150.0,51.24797,-0.58708,62.9,0.6,25.7,1007.8,0.0
441.0,60160.0,51.24797,-0.58712,67.1,1.5,25.7,1007.8,0.0
442.0,60170.0,51.24802,-0.58714,65.4,0.4,25.7,1007.8,0.0
443.0,60180.0,51.24794,-0.5872,72.7,8.1,25.7,1007.9,0.0
444.0,60190.0,51.24789,-0.58726,73.0,2.5,25.7,1007.9,0.0
445.0,60200.0,51.24797,-0.58724,74.6,0.4,25.7,1008.0,0.0
446.0,60210.0,51.24799,-0.58724,76.9,1.4,25.7,1008.0,0.0
447.0,60220.0,51.24805,-0.58726,73.0,1.0,25.7,1007.8,0.0
448.0,60230.0,51.24808,-0.5872,68.2,1.1,25.7,1008.0,0.0
449.0,60240.0,51.24803,-0.58718,67.3,0.7,25.7,1007.9,0.0
450.0,60250.0,51.24799,-0.58714,62.1,0.4,25.7,1007.8,0.0
451.0,60260.0,51.24796,-0.58716,61.9,1.0,25.7,1007.8,0.0
452.0,60270.0,51.24785,-0.58714,65.0,2.3,25.7,1007.8,0.0
453.0,60280.0,51.24788,-0.58718,59.6,0.4,25.7,1007.8,0.0
454.0,60290.0,51.24805,-0.58722,58.7,2.5,25.8,1007.8,0.0
455.0,60300.0,51.24797,-0.58714,51.4,1.2,25.8,1007.8,0.0
456.0,60310.0,51.24789,-0.58712,45.9,1.5,25.8,1007.9,0.0
457.0,60320.0,51.24774,-0.58716,41.0,2.5,25.8,1007.9,0.0
458.0,60330.0,51.24773,-0.58712,39.5,0.6,25.8,1007.8,0.0
459.0,60340.0,51.24789,-0.58714,47.9,0.7,25.8,1007.9,0.0
460.0,60350.0,51.24797,-0.58714,52.0,0.5,25.8,1007.9,0.0
461.0,60360.0,51.24796,-0.58714,49.3,1.7,25.7,1007.9,0.0
