Packet Number,Time,Latitude,Longitude,Altitude,Speed,Temperature,Pressure,Radiation
1.0,53440.0,51.248,-0.587,54.1,3.2,21.2,1008.4,0.0
2.0,53450.0,51.248,-0.5871,54.6,0.9,21.2,1008.5,0.0
3.0,53460.0,51.248,-0.5871,54.6,1.1,21.2,1008.4,0.0
4.0,53470.0,51.2479,-0.5871,48.4,0.9,21.2,1008.4,0.0
5.0,53480.0,51.2479,-0.587,53.8,0.2,21.2,1008.5,0.0
6.0,53490.0,51.248,-0.587,63.8,0.6,21.2,1008.5,0.0
7.0,53500.0,51.2481,-0.587,65.0,1.7,21.2,1008.4,0.0
8.0,53510.0,51.2481,-0.5871,65.1,1.3,21.2,1008.4,0.0
9.0,53520.0,51.2481,-0.5871,62.0,1.1,21.3,1008.5,0.0
10.0,53530.0,51.248,-0.5871,58.6,1.4,21.3,1008.4,0.0
11.0,53540.0,51.248,-0.5871,59.1,1.8,21.3,1008.5,0.0
12.0,53550.0,51.248,-0.5871,57.4,0.9,21.3,1008.4,0.0
13.0,53560.0,51.248,-0.5871,59.8,0.3,21.3,1008.5,0.0
14.0,53570.0,51.2482,-0.5871,65.0,3.4,21.3,1008.5,0.0
15.0,53580.0,51.2481,-0.5871,65.5,4.9,21.3,1008.4,0.0
16.0,53590.0,51.2482,-0.5871,70.1,1.7,21.3,1008.4,0.0
17.0,53600.0,51.2481,-0.587,70.7,4.9,21.3,1008.5,0.0
18.0,53610.0,51.2481,-0.587,74.6,7.1,21.3,1008.5,0.0
19.0,53617.0,51.2482,-0.5871,73.8,9.2,21.3,1008.4,0.0
20.0,53627.0,51.2482,-0.5871,70.4,0.9,21.3,1008.4,0.0
21.0,53637.0,51.2483,-0.5872,67.8,5.3,21.3,1008.4,0.0
22.0,53647.0,51.2482,-0.5872,62.0,3.4,21.3,1008.4,0.0
23.0,53657.0,51.2481,-0.5871,58.3,15.3,21.4,1008.4,0.0
24.0,53667.0,51.2481,-0.5871,53.6,3.1,21.4,1008.4,0.0
25.0,53677.0,51.2481,-0.587,57.7,4.4,21.4,1008.4,0.0
26.0,53687.0,51.2482,-0.5871,65.9,4.0,21.4,1008.4,0.0
27.0,53697.0,51.2483,-0.5872,63.0,11.3,21.4,1008.4,0.0
28.0,53707.0,51.2481,-0.5872,36.9,2.2,21.4,1008.4,0.0
29.0,53717.0,51.2481,-0.5872,36.7,0.6,21.4,1008.4,0.0
30.0,53727.0,51.248,-0.5871,39.1,1.1,21.4,1008.4,0.0
31.0,53737.0,51.248,-0.5871,48.3,1.2,21.4,1008.4,0.0
32.0,53747.0,51.2479,-0.5871,60.0,2.2,21.4,1008.4,0.0
33.0,53755.0,51.248,-0.5871,51.5,0.4,21.4,1008.4,0.0
34.0,53765.0,51.248,-0.587,38.6,2.3,21.4,1008.4,0.0
35.0,53775.0,51.2479,-0.5871,45.8,3.9,21.4,1008.4,0.0
36.0,53785.0,51.2479,-0.5871,47.7,4.9,21.4,1008.4,0.0
37.0,53795.0,51.2478,-0.587,71.0,0.9,21.4,1008.4,0.0
38.0,53805.0,51.2479,-0.5871,67.5,3.8,21.5,1008.4,0.0
39.0,53815.0,51.2479,-0.5871,61.2,2.4,21.5,1008.4,0.0
40.0,53825.0,51.248,-0.587,55.2,5.0,21.5,1008.4,0.0
41.0,53835.0,51.248,-0.5872,45.1,1.3,21.5,1008.4,0.0
42.0,53845.0,51.248,-0.5871,46.5,2.2,21.5,1008.4,0.0
43.0,53855.0,51.2479,-0.5872,36.2,3.2,21.5,1008.4,0.0
44.0,53865.0,51.248,-0.5872,25.9,4.5,21.5,1008.4,0.0
45.0,53875.0,51.2479,-0.5868,41.0,1.2,21.5,1008.4,0.0
46.0,53885.0,51.2479,-0.5868,58.9,8.0,21.5,1008.5,0.0
47.0,53895.0,51.2479,-0.5869,59.8,2.8,21.5,1008.4,0.0
48.0,53905.0,51.2479,-0.5871,46.3,1.5,21.5,1008.4,0.0
49.0,53915.0,51.2479,-0.5872,37.5,3.3,21.5,1008.4,0.0
50.0,53925.0,51.2479,-0.587,60.5,2.1,21.5,1008.5,0.0
51.0,53935.0,51.2479,-0.5869,66.8,4.0,21.5,1008.4,0.0
52.0,53945.0,51.2478,-0.587,74.7,1.8,21.6,1008.4,0.0
53.0,53955.0,51.2477,-0.5868,76.2,2.7,21.6,1008.3,0.0
54.0,53965.0,51.2479,-0.5868,60.1,8.5,21.6,1008.3,0.0
55.0,53975.0,51.2479,-0.587,45.2,2.2,21.6,1008.4,0.0
56.0,53985.0,51.2479,-0.587,39.9,1.7,21.6,1008.4,0.0
57.0,53995.0,51.248,-0.5871,42.2,1.3,21.6,1008.4,0.0
58.0,54007.0,51.2479,-0.587,55.4,2.8,21.6,1008.4,0.0
59.0,54017.0,51.2479,-0.587,51.9,0.6,21.6,1008.4,0.0
60.0,54027.0,51.248,-0.5871,48.8,2.3,21.6,1008.4,0.0
61.0,54037.0,51.248,-0.5871,45.2,2.8,21.6,1008.4,0.0
62.0,54047.0,51.248,-0.5871,44.5,1.1,21.7,1008.4,0.0
63.0,54055.0,51.248,-0.5872,43.4,3.6,21.7,1008.4,0.0
64.0,54065.0,51.2479,-0.5871,39.9,3.1,21.7,1008.4,0.0
65.0,54075.0,51.2479,-0.5869,45.7,2.5,21.7,1008.4,0.0
66.0,54087.0,51.2478,-0.5867,68.9,3.8,21.7,1008.4,0.0
67.0,54097.0,51.2479,-0.5868,65.5,1.8,21.7,1008.4,0.0
68.0,54105.0,51.2479,-0.5869,62.8,2.9,21.7,1008.4,0.0
69.0,54115.0,51.248,-0.5868,76.1,0.6,21.7,1008.4,0.0
70.0,54125.0,51.2479,-0.5868,89.0,3.7,21.7,1008.4,0.0
71.0,54135.0,51.248,-0.5867,75.9,4.9,21.7,1008.4,0.0
72.0,54145.0,51.248,-0.5868,70.3,3.1,21.7,1008.4,0.0
73.0,54155.0,51.248,-0.5869,56.1,1.9,21.7,1008.3,0.0
74.0,54165.0,51.2479,-0.587,48.7,1.9,21.7,1008.4,0.0
75.0,54175.0,51.248,-0.5872,45.1,2.2,21.7,1008.3,0.0
76.0,54185.0,51.2481,-0.5873,43.7,2.7,21.7,1008.4,0.0
77.0,54195.0,51.2481,-0.5873,26.4,4.5,21.7,1008.4,0.0
78.0,54205.0,51.2481,-0.5871,36.3,1.9,21.7,1008.4,0.0
79.0,54215.0,51.2481,-0.5869,48.9,2.2,21.7,1008.4,0.0
80.0,54225.0,51.248,-0.587,45.4,2.5,21.7,1008.4,0.0
81.0,54235.0,51.248,-0.587,51.6,1.8,21.7,1008.4,0.0
82.0,54245.0,51.248,-0.587,53.6,5.6,21.8,1008.4,0.0
83.0,54255.0,51.2479,-0.5869,64.4,5.3,21.8,1008.4,0.0
84.0,54265.0,51.2479,-0.5869,62.2,2.9,21.8,1008.4,0.0
85.0,54275.0,51.248,-0.587,54.6,1.2,21.8,1008.4,0.0
86.0,54285.0,51.2479,-0.587,52.9,0.9,21.8,1008.3,0.0
87.0,54295.0,51.2479,-0.5871,46.4,1.1,21.8,1008.4,0.0
88.0,54307.0,51.248,-0.5871,29.0,0.4,21.8,1008.3,0.0
89.0,54317.0,51.248,-0.5871,28.1,2.5,21.8,1008.3,0.0
90.0,54325.0,51.248,-0.5872,21.8,1.7,21.8,1008.4,0.0
91.0,54335.0,51.2479,-0.5872,39.9,2.9,21.8,1008.4,0.0
92.0,54345.0,51.2479,-0.587,62.0,4.4,21.8,1008.4,0.0
93.0,54355.0,51.248,-0.587,64.4,3.8,21.8,1008.3,0.0
94.0,54365.0,51.248,-0.587,64.5,3.9,21.9,1008.4,0.0
95.0,54377.0,51.248,-0.587,63.9,2.4,21.9,1008.3,0.0
96.0,54385.0,51.2481,-0.587,48.4,6.0,21.9,1008.3,0.0
97.0,54395.0,51.248,-0.5871,53.8,1.6,21.9,1008.4,0.0
98.0,54405.0,51.2479,-0.587,66.5,4.0,21.9,1008.3,0.0
99.0,54415.0,51.2479,-0.587,65.2,2.5,21.9,1008.4,0.0
100.0,54425.0,51.2479,-0.5871,52.5,4.7,21.9,1008.3,0.0
101.0,54435.0,51.2479,-0.587,64.6,4.8,21.9,1008.4,0.0
102.0,54445.0,51.248,-0.5869,65.6,3.2,21.9,1008.3,0.0
103.0,54455.0,51.248,-0.587,51.7,4.0,21.9,1008.4,0.0
104.0,54465.0,51.2481,-0.5872,39.3,2.6,21.9,1008.4,0.0
105.0,54475.0,51.248,-0.5871,49.7,1.9,21.9,1008.3,0.0
106.0,54485.0,51.248,-0.5872,52.0,1.0,21.9,1008.3,0.0
107.0,54495.0,51.248,-0.5871,52.7,4.6,22.0,1008.4,0.0
108.0,54505.0,51.248,-0.5872,23.0,2.0,22.0,1008.3,0.0
