id,PC time,fix,time,hours,mins,secs,altitude,latitude,longitude,speed,temperature,pressure,radiation counts
0,20:14:28,1,72855,20,14,15,74.0,51.24323,-0.604794,0.0,25.76,1018.4,301
1,20:14:33,1,72855,20,14,15,74.0,51.24323,-0.604794,0.0,25.76,1018.4,301
2,20:14:38,1,72855,20,14,15,74.0,51.24323,-0.604794,0.0,25.68,1018.4,300
3,20:14:43,1,72880,20,14,40,72.9,51.243084,-0.604782,0.0,25.68,1018.4,300
4,20:14:48,1,72885,20,14,45,80.0,51.242992,-0.604793,0.0,25.54,1018.4,300
5,20:14:53,1,72890,20,14,50,75.3,51.243034,-0.604751,0.0,25.54,1018.4,300
6,20:14:58,1,72895,20,14,55,90.3,51.242985,-0.604848,0.0,25.43,1018.3,301
7,20:15:03,1,72895,20,14,55,90.3,51.242985,-0.604848,0.0,25.43,1018.3,301
8,20:15:08,1,72895,20,14,55,90.3,51.242985,-0.604848,0.0,25.32,1018.3,301
9,20:15:13,1,72910,20,15,10,94.5,51.242977,-0.60492,0.0,25.32,1018.3,301
10,20:15:18,1,72915,20,15,15,99.3,51.242935,-0.604929,0.0,25.22,1018.4,301
11,20:15:23,1,72920,20,15,20,101.5,51.24296,-0.604957,0.0,25.22,1018.4,301
12,20:15:28,1,72920,20,15,20,101.5,51.24296,-0.604957,0.0,25.13,1018.4,301
13,20:15:33,1,72930,20,15,30,88.4,51.242943,-0.604874,0.0,25.13,1018.4,301
14,20:15:38,1,72935,20,15,35,83.7,51.242935,-0.604865,0.0,25.0,1018.4,301
15,20:15:43,1,72940,20,15,40,79.0,51.243027,-0.604844,0.0,25.0,1018.4,301
16,20:15:48,1,72945,20,15,45,79.0,51.243065,-0.604904,0.0,24.93,1018.3,301
17,20:15:53,1,72945,20,15,45,79.0,51.243065,-0.604904,0.0,24.93,1018.3,301
18,20:15:58,1,72955,20,15,55,89.8,51.243027,-0.604906,0.0,24.83,1018.3,300
19,20:16:03,1,72960,20,16,0,92.9,51.24305,-0.604914,0.0,24.83,1018.3,300
20,20:16:08,1,72965,20,16,5,95.5,51.2431,-0.604894,0.0,24.72,1018.3,300
21,20:16:13,1,72970,20,16,10,92.7,51.243084,-0.604897,0.0,24.72,1018.3,301
22,20:16:18,1,72975,20,16,15,94.7,51.24309,-0.604907,0.0,24.62,1018.4,301
23,20:16:23,1,72980,20,16,20,94.7,51.243076,-0.604845,0.0,24.62,1018.4,301
24,20:16:28,1,72985,20,16,25,89.7,51.243034,-0.604877,0.0,24.54,1018.3,301
25,20:16:33,1,72990,20,16,30,89.7,51.243042,-0.604899,0.0,24.54,1018.3,301
26,20:16:38,1,72990,20,16,30,89.7,51.243042,-0.604899,0.0,24.43,1018.3,301
27,20:16:43,1,73000,20,16,40,94.3,51.243107,-0.604902,0.0,24.43,1018.3,301
28,20:16:48,1,73005,20,16,45,94.3,51.243107,-0.604896,0.0,24.35,1018.3,301
29,20:16:53,1,73010,20,16,50,94.3,51.243122,-0.604924,0.0,24.35,1018.3,301
30,20:16:58,1,73015,20,16,55,96.0,51.2431,-0.604862,0.0,24.27,1018.4,301
31,20:17:03,1,73020,20,17,0,90.9,51.24309,-0.604838,0.0,24.27,1018.4,301
32,20:17:08,1,73025,20,17,5,84.5,51.243034,-0.604785,0.0,24.17,1018.3,301
33,20:17:13,1,73030,20,17,10,80.2,51.242992,-0.604755,0.0,24.17,1018.3,300
34,20:17:18,1,73035,20,17,15,75.5,51.243042,-0.604731,0.0,24.1,1018.3,300
35,20:17:23,1,73040,20,17,20,75.5,51.243042,-0.604718,0.0,24.1,1018.3,300
36,20:17:28,1,73045,20,17,25,65.2,51.243076,-0.604724,0.0,24.02,1018.3,301
37,20:17:33,1,73050,20,17,30,65.2,51.2431,-0.604629,0.0,24.02,1018.3,301
38,20:17:38,1,73055,20,17,35,65.2,51.24313,-0.604569,0.0,23.95,1018.3,301
39,20:17:43,1,73060,20,17,40,50.4,51.24313,-0.604577,0.0,23.95,1018.3,301
40,20:17:48,1,73065,20,17,45,70.3,51.243076,-0.604734,0.0,23.88,1018.4,301
41,20:17:53,1,73070,20,17,50,70.3,51.24309,-0.604815,0.0,23.88,1018.4,301
42,20:17:58,1,73075,20,17,55,70.3,51.243122,-0.604809,0.0,23.8,1018.4,301
43,20:18:03,1,73080,20,18,0,80.8,51.243114,-0.604801,0.0,23.8,1018.4,301
44,20:18:08,1,73085,20,18,5,87.2,51.243057,-0.604894,0.0,23.7,1018.3,301
45,20:18:13,1,73090,20,18,10,87.2,51.242943,-0.60487,0.0,23.7,1018.3,301
46,20:18:18,1,73090,20,18,10,87.2,51.242943,-0.60487,0.0,23.62,1018.4,301
47,20:18:23,1,73100,20,18,20,87.2,51.243034,-0.604959,0.0,23.62,1018.4,301
48,20:18:28,1,73105,20,18,25,87.2,51.24305,-0.604938,0.0,23.54,1018.3,300
49,20:18:33,1,73110,20,18,30,89.9,51.243065,-0.6049,0.0,23.54,1018.3,300
50,20:18:38,1,73115,20,18,35,75.1,51.243107,-0.60482,0.0,23.47,1018.4,300
51,20:18:43,1,73120,20,18,40,72.7,51.243084,-0.604764,0.0,23.47,1018.4,301
52,20:18:48,1,73125,20,18,45,83.5,51.243057,-0.604797,0.0,23.39,1018.4,301
53,20:18:53,1,73130,20,18,50,83.5,51.243008,-0.604752,0.0,23.39,1018.4,301
54,20:18:58,1,73135,20,18,55,83.5,51.242985,-0.604743,0.0,23.33,1018.4,301
55,20:19:03,1,73140,20,19,0,80.6,51.24297,-0.604767,0.0,23.33,1018.4,301
56,20:19:08,1,73145,20,19,5,79.4,51.24302,-0.604806,0.0,23.26,1018.4,301
57,20:19:13,1,73150,20,19,10,77.0,51.243034,-0.604771,0.0,23.26,1018.4,301
58,20:19:18,1,73155,20,19,15,76.0,51.243027,-0.604787,0.0,23.19,1018.3,301
59,20:19:23,1,73160,20,19,20,80.5,51.243065,-0.604817,0.0,23.19,1018.3,301
60,20:19:28,1,73165,20,19,25,79.6,51.243042,-0.604796,0.0,23.11,1018.4,301
61,20:19:33,1,73165,20,19,25,79.6,51.243042,-0.604796,0.0,23.11,1018.4,301
62,20:19:38,1,73175,20,19,35,86.5,51.243,-0.604859,0.0,23.03,1018.3,301
63,20:19:43,1,73180,20,19,40,83.2,51.242992,-0.604869,0.0,23.03,1018.3,300
64,20:19:48,1,73180,20,19,40,83.2,51.242992,-0.604869,0.0,22.98,1018.4,300
65,20:19:53,1,73180,20,19,40,83.2,51.242992,-0.604869,0.0,22.98,1018.4,300
66,20:19:58,1,73195,20,19,55,83.2,51.243027,-0.604817,0.0,22.93,1018.4,301
67,20:20:03,1,73200,20,20,0,76.8,51.24297,-0.604809,0.0,22.93,1018.4,301
68,20:20:08,1,73205,20,20,5,78.1,51.243065,-0.604815,0.0,22.86,1018.3,301
69,20:20:13,1,73210,20,20,10,78.1,51.2431,-0.604799,0.0,22.86,1018.3,301
70,20:20:18,1,73215,20,20,15,76.7,51.24314,-0.604792,0.0,22.8,1018.4,301
71,20:20:23,1,73220,20,20,20,88.9,51.243107,-0.604878,0.0,22.8,1018.4,301
72,20:20:28,1,73225,20,20,25,87.8,51.24314,-0.604845,0.0,22.74,1018.3,301
73,20:20:33,1,73230,20,20,30,84.3,51.24315,-0.604771,0.0,22.74,1018.3,301
74,20:20:38,1,73235,20,20,35,84.0,51.24318,-0.604753,0.0,22.72,1018.4,301
75,20:20:43,1,73235,20,20,35,84.0,51.24318,-0.604753,0.0,22.72,1018.4,301
76,20:20:48,1,73245,20,20,45,74.0,51.243187,-0.604803,0.0,22.69,1018.4,301
77,20:20:53,1,73250,20,20,50,74.0,51.2432,-0.604757,0.0,22.69,1018.4,301
78,20:20:58,1,73255,20,20,55,53.2,51.243214,-0.604724,0.0,22.64,1018.4,300
79,20:21:03,1,73260,20,21,0,53.5,51.24325,-0.604724,0.0,22.64,1018.4,300
80,20:21:08,1,73265,20,21,5,52.5,51.24322,-0.604722,0.0,22.54,1018.4,300
81,20:21:13,1,73270,20,21,10,52.5,51.24313,-0.604728,0.0,22.54,1018.4,300
82,20:21:18,1,73275,20,21,15,58.7,51.243164,-0.604719,0.0,22.46,1018.3,301
83,20:21:23,1,73280,20,21,20,57.9,51.24315,-0.604722,0.0,22.46,1018.3,301
84,20:21:28,1,73285,20,21,25,57.6,51.24313,-0.604705,0.0,22.4,1018.4,301
85,20:21:33,1,73290,20,21,30,62.5,51.243107,-0.604767,0.0,22.4,1018.4,301
86,20:21:38,1,73295,20,21,35,69.9,51.2431,-0.604786,0.0,22.36,1018.4,301
87,20:21:43,1,73300,20,21,40,71.8,51.243114,-0.604789,0.0,22.36,1018.4,301
88,20:21:48,1,73305,20,21,45,71.9,51.24313,-0.60479,0.0,22.31,1018.4,301
89,20:21:53,1,73310,20,21,50,65.3,51.243084,-0.604687,0.0,22.31,1018.4,301
90,20:21:58,1,73315,20,21,55,65.3,51.243065,-0.604657,0.0,22.26,1018.4,301
91,20:22:03,1,73320,20,22,0,69.2,51.24305,-0.604664,0.0,22.26,1018.4,301
92,20:22:09,1,73320,20,22,0,69.2,51.24305,-0.604664,0.0,22.19,1018.4,301
93,20:22:14,1,73320,20,22,0,69.2,51.24305,-0.604664,0.0,22.19,1018.4,301
94,20:22:19,1,73335,20,22,15,69.8,51.243065,-0.604766,0.0,22.15,1018.4,300
95,20:22:24,1,73340,20,22,20,77.0,51.243107,-0.604825,0.0,22.15,1018.4,300
96,20:22:29,1,73345,20,22,25,80.4,51.243122,-0.604878,0.0,22.08,1018.4,301
97,20:22:34,1,73350,20,22,30,80.4,51.243122,-0.604889,0.0,22.08,1018.4,301
98,20:22:39,1,73350,20,22,30,80.4,51.243122,-0.604889,0.0,22.04,1018.4,301
99,20:22:44,1,73350,20,22,30,80.4,51.243122,-0.604889,0.0,22.04,1018.4,301
100,20:22:49,1,73365,20,22,45,71.1,51.243042,-0.604808,0.0,21.99,1018.4,301
101,20:22:54,1,73370,20,22,50,74.1,51.243065,-0.604791,0.0,21.99,1018.4,301
102,20:22:59,1,73375,20,22,55,74.1,51.243084,-0.604802,0.0,21.94,1018.4,301
103,20:23:04,1,73380,20,23,0,81.9,51.243122,-0.604839,0.0,21.94,1018.4,301
104,20:23:09,1,73385,20,23,5,79.2,51.24309,-0.604815,0.0,21.91,1018.4,301
105,20:23:14,1,73390,20,23,10,80.1,51.243076,-0.604828,0.0,21.91,1018.4,301
106,20:23:19,1,73395,20,23,15,68.2,51.243107,-0.604734,0.0,21.86,1018.4,301
107,20:23:24,1,73400,20,23,20,68.2,51.243164,-0.604689,0.0,21.86,1018.4,301
108,20:23:29,1,73400,20,23,20,68.2,51.243164,-0.604689,0.0,21.83,1018.4,300
109,20:23:34,1,73400,20,23,20,68.2,51.243164,-0.604689,0.0,21.83,1018.4,300
110,20:23:39,1,73415,20,23,35,68.2,51.24315,-0.604715,0.0,21.79,1018.4,301
111,20:23:44,1,73420,20,23,40,67.6,51.243107,-0.604798,0.0,21.79,1018.4,301
112,20:23:49,1,73425,20,23,45,83.3,51.243107,-0.604863,0.0,21.75,1018.4,301
113,20:23:54,1,73425,20,23,45,83.3,51.243107,-0.604863,0.0,21.75,1018.4,301
114,20:23:59,1,73435,20,23,55,83.3,51.243114,-0.604923,0.0,21.73,1018.4,301
115,20:24:04,1,73440,20,24,0,97.8,51.243008,-0.604895,0.0,21.73,1018.4,301
116,20:24:09,1,73445,20,24,5,85.3,51.243034,-0.604835,0.0,21.69,1018.4,301
117,20:24:14,1,73445,20,24,5,85.3,51.243034,-0.604835,0.0,21.69,1018.4,301
118,20:24:19,1,73455,20,24,15,85.3,51.2431,-0.604889,0.0,21.63,1018.4,301
119,20:24:24,1,73460,20,24,20,85.3,51.243057,-0.604846,0.0,21.63,1018.4,301
120,20:24:29,1,73465,20,24,25,81.7,51.24313,-0.604846,0.0,21.57,1018.4,301
121,20:24:34,1,73470,20,24,30,82.2,51.24315,-0.604853,0.0,21.57,1018.4,301
122,20:24:39,1,73475,20,24,35,80.9,51.24317,-0.604897,0.0,21.51,1018.4,300
123,20:24:44,1,73480,20,24,40,90.5,51.243084,-0.604931,0.0,21.51,1018.4,301
124,20:24:49,1,73485,20,24,45,90.5,51.243156,-0.604874,0.0,21.48,1018.4,301
125,20:24:54,1,73490,20,24,50,85.9,51.243164,-0.604865,0.0,21.48,1018.4,301
126,20:24:59,1,73495,20,24,55,87.7,51.243107,-0.60484,0.0,21.44,1018.5,301
127,20:25:04,1,73495,20,24,55,87.7,51.243107,-0.60484,0.0,21.44,1018.5,301
128,20:25:09,1,73505,20,25,5,87.7,51.243164,-0.604683,0.0,21.4,1018.4,301
129,20:25:14,1,73510,20,25,10,96.1,51.243076,-0.604874,0.0,21.4,1018.4,301
130,20:25:19,1,73515,20,25,15,96.1,51.243114,-0.60488,0.0,21.36,1018.4,301
131,20:25:24,1,73520,20,25,20,96.3,51.243156,-0.604926,0.0,21.36,1018.4,301
132,20:25:29,1,73525,20,25,25,86.1,51.243206,-0.604934,0.0,21.31,1018.4,301
133,20:25:34,1,73530,20,25,30,83.5,51.243122,-0.604939,0.0,21.31,1018.4,301
134,20:25:39,1,73530,20,25,30,83.5,51.243122,-0.604939,0.0,21.28,1018.4,301
135,20:25:44,1,73540,20,25,40,83.5,51.243156,-0.604853,0.0,21.28,1018.4,300
136,20:25:49,1,73545,20,25,45,78.6,51.243107,-0.604896,0.0,21.24,1018.4,300
137,20:25:54,1,73550,20,25,50,86.5,51.243107,-0.60484,0.0,21.24,1018.4,300
138,20:25:59,1,73555,20,25,55,82.9,51.243107,-0.604834,0.0,21.21,1018.4,300
139,20:26:04,1,73560,20,26,0,82.9,51.243164,-0.604797,0.0,21.21,1018.4,301
140,20:26:09,1,73565,20,26,5,83.9,51.24313,-0.604908,0.0,21.2,1018.5,301
141,20:26:14,1,73570,20,26,10,90.6,51.243076,-0.604957,0.0,21.2,1018.5,301
142,20:26:19,1,73575,20,26,15,84.4,51.243122,-0.604907,0.0,21.17,1018.5,301
143,20:26:24,1,73580,20,26,20,91.9,51.243076,-0.604949,0.0,21.17,1018.5,301
144,20:26:29,1,73580,20,26,20,91.9,51.243076,-0.604949,0.0,21.13,1018.4,301
145,20:26:34,1,73590,20,26,30,78.7,51.2432,-0.604858,0.0,21.13,1018.4,301
146,20:26:39,1,73595,20,26,35,78.7,51.24318,-0.604865,0.0,21.1,1018.4,301
147,20:26:44,1,73600,20,26,40,78.7,51.243237,-0.604834,0.0,21.1,1018.4,301
148,20:26:49,1,73605,20,26,45,78.7,51.243237,-0.604892,0.0,21.04,1018.4,301
149,20:26:54,1,73605,20,26,45,78.7,51.243237,-0.604892,0.0,21.04,1018.4,301
150,20:26:59,1,73615,20,26,55,80.3,51.243237,-0.604869,0.0,21.03,1018.5,301
151,20:27:04,1,73620,20,27,0,81.4,51.24327,-0.604857,0.0,21.03,1018.5,300
152,20:27:09,1,73620,20,27,0,81.4,51.24327,-0.604857,0.0,21.02,1018.5,300
153,20:27:14,1,73630,20,27,10,81.4,51.24318,-0.604843,0.0,21.02,1018.5,300
154,20:27:19,1,73635,20,27,15,76.5,51.243156,-0.604805,0.0,20.98,1018.5,301
155,20:27:24,1,73640,20,27,20,77.6,51.24315,-0.604798,0.0,20.98,1018.5,301
156,20:27:29,1,73645,20,27,25,77.6,51.2431,-0.604778,0.0,20.93,1018.4,301
157,20:27:34,1,73650,20,27,30,68.5,51.243114,-0.604785,0.0,20.93,1018.4,301
158,20:27:39,1,73655,20,27,35,66.7,51.24305,-0.60485,0.0,20.88,1018.4,301
159,20:27:44,1,73660,20,27,40,81.1,51.242954,-0.604926,0.0,20.88,1018.4,301
160,20:27:49,1,73665,20,27,45,79.6,51.24305,-0.604845,0.0,20.83,1018.4,301
161,20:27:54,1,73670,20,27,50,85.0,51.24305,-0.604913,0.0,20.83,1018.4,301
162,20:27:59,1,73675,20,27,55,83.9,51.243042,-0.604861,0.0,20.83,1018.5,301
163,20:28:04,1,73680,20,28,0,77.6,51.243076,-0.60485,0.0,20.83,1018.5,301
164,20:28:09,1,73685,20,28,5,70.6,51.243065,-0.604814,0.0,20.8,1018.4,301
165,20:28:14,1,73690,20,28,10,63.8,51.243057,-0.604762,0.0,20.8,1018.4,301
166,20:28:19,1,73695,20,28,15,69.2,51.243057,-0.604727,0.0,20.75,1018.5,300
167,20:28:24,1,73700,20,28,20,82.0,51.243008,-0.604807,0.0,20.75,1018.5,300
168,20:28:29,1,73705,20,28,25,73.6,51.243042,-0.604782,0.0,20.73,1018.5,300
169,20:28:34,1,73710,20,28,30,57.2,51.24309,-0.604714,0.0,20.73,1018.5,301
170,20:28:39,1,73715,20,28,35,57.2,51.243114,-0.604827,0.0,20.7,1018.5,301
171,20:28:44,1,73720,20,28,40,77.8,51.243156,-0.604869,0.0,20.7,1018.5,301
172,20:28:49,1,73725,20,28,45,76.4,51.243214,-0.604882,0.0,20.67,1018.5,301
173,20:28:54,1,73730,20,28,50,71.3,51.243244,-0.604913,0.0,20.67,1018.5,301
174,20:28:59,1,73735,20,28,55,76.4,51.243237,-0.604894,0.0,20.64,1018.5,301
175,20:29:04,1,73735,20,28,55,76.4,51.243237,-0.604894,0.0,20.64,1018.5,301
176,20:29:09,1,73735,20,28,55,76.4,51.243237,-0.604894,0.0,20.6,1018.5,301
177,20:29:14,1,73750,20,29,10,76.4,51.2432,-0.604762,0.0,20.6,1018.5,301
178,20:29:19,1,73755,20,29,15,60.5,51.24317,-0.604714,0.0,20.58,1018.5,301
179,20:29:24,1,73760,20,29,20,73.9,51.24314,-0.604799,0.0,20.58,1018.5,301
180,20:29:29,1,73765,20,29,25,62.6,51.24313,-0.604772,0.0,20.56,1018.5,301
181,20:29:34,1,73770,20,29,30,62.6,51.243107,-0.604758,0.0,20.56,1018.5,300
182,20:29:39,1,73775,20,29,35,59.7,51.243122,-0.604814,0.0,20.51,1018.5,301
183,20:29:44,1,73780,20,29,40,59.7,51.243084,-0.604795,0.0,20.51,1018.5,301
184,20:29:49,1,73785,20,29,45,59.7,51.2431,-0.604811,0.0,20.5,1018.5,301
185,20:29:54,1,73790,20,29,50,59.7,51.243164,-0.604847,0.0,20.5,1018.5,301
186,20:29:59,1,73795,20,29,55,59.7,51.24313,-0.604879,0.0,20.47,1018.5,301
187,20:30:04,1,73800,20,30,0,66.0,51.24323,-0.604831,0.0,20.47,1018.5,301
188,20:30:09,1,73807,20,30,7,69.6,51.24318,-0.604818,0.0,20.44,1018.5,301
189,20:30:14,1,73812,20,30,12,69.7,51.243187,-0.604822,0.0,20.44,1018.5,301
190,20:30:19,1,73817,20,30,17,67.9,51.243187,-0.60481,0.0,20.4,1018.5,301
191,20:30:24,1,73822,20,30,22,68.8,51.2432,-0.604806,0.0,20.4,1018.5,301
192,20:30:30,1,73827,20,30,27,69.7,51.2432,-0.604797,0.0,20.4,1018.5,301
193,20:30:35,1,73832,20,30,32,69.4,51.243187,-0.604778,0.0,20.4,1018.5,301
194,20:30:40,1,73835,20,30,35,69.4,51.24322,-0.604741,0.0,20.37,1018.5,300
195,20:30:45,1,73835,20,30,35,69.4,51.24322,-0.604741,0.0,20.37,1018.5,301
196,20:30:50,1,73845,20,30,45,76.1,51.24314,-0.604824,0.0,20.34,1018.5,301
197,20:30:55,1,73850,20,30,50,71.9,51.243107,-0.604752,0.0,20.34,1018.5,301
198,20:31:00,1,73855,20,30,55,75.6,51.24315,-0.604758,0.0,20.31,1018.5,301
199,20:31:05,1,73865,20,31,5,80.6,51.243057,-0.604878,0.0,20.31,1018.5,301
200,20:31:10,1,73870,20,31,10,80.6,51.243164,-0.605,0.0,20.28,1018.5,301
201,20:31:15,1,73875,20,31,15,94.4,51.24305,-0.604982,0.0,20.28,1018.5,301
202,20:31:20,1,73880,20,31,20,94.4,51.243027,-0.604995,0.0,20.25,1018.5,301
203,20:31:25,1,73885,20,31,25,81.8,51.243107,-0.604901,0.0,20.25,1018.5,301
204,20:31:30,1,73890,20,31,30,72.9,51.24314,-0.604882,0.0,20.25,1018.6,301
205,20:31:35,1,73895,20,31,35,72.9,51.243122,-0.604868,0.0,20.25,1018.6,301
206,20:31:40,1,73900,20,31,40,75.9,51.24305,-0.60482,0.0,20.23,1018.5,301
207,20:31:45,1,73900,20,31,40,75.9,51.24305,-0.60482,0.0,20.23,1018.5,300
208,20:31:50,1,73910,20,31,50,75.3,51.243187,-0.604861,0.0,20.21,1018.5,300
209,20:31:55,1,73915,20,31,55,70.1,51.243206,-0.604847,0.0,20.21,1018.5,301
210,20:32:00,1,73920,20,32,0,67.0,51.24318,-0.604827,0.0,20.19,1018.5,301
211,20:32:05,1,73925,20,32,5,67.0,51.243214,-0.604814,0.0,20.19,1018.5,301
212,20:32:10,1,73930,20,32,10,67.0,51.24318,-0.604802,0.0,20.15,1018.6,301
213,20:32:15,1,73935,20,32,15,67.0,51.24318,-0.604789,0.0,20.15,1018.6,301
214,20:32:20,1,73940,20,32,20,66.4,51.243187,-0.604811,0.0,20.13,1018.6,301
215,20:32:25,1,73945,20,32,25,66.4,51.243164,-0.604819,0.0,20.13,1018.6,301
216,20:32:30,1,73950,20,32,30,80.1,51.243214,-0.604842,0.0,20.11,1018.6,301
217,20:32:35,1,73955,20,32,35,80.1,51.243164,-0.604818,0.0,20.11,1018.6,301
218,20:32:40,1,73960,20,32,40,57.7,51.24309,-0.604761,0.0,20.11,1018.6,301
219,20:32:45,1,73965,20,32,45,46.3,51.242943,-0.604711,0.0,20.11,1018.6,301
220,20:32:50,1,73970,20,32,50,55.1,51.243,-0.604851,0.0,20.09,1018.5,301
221,20:32:55,1,73970,20,32,50,55.1,51.243,-0.604851,0.0,20.09,1018.5,300
222,20:33:00,1,73980,20,33,0,71.8,51.243027,-0.604844,0.0,20.07,1018.5,300
223,20:33:05,1,73985,20,33,5,92.3,51.243156,-0.605001,0.0,20.07,1018.5,301
224,20:33:10,1,73990,20,33,10,100.1,51.243187,-0.605052,0.0,20.05,1018.6,301
225,20:33:15,1,73995,20,33,15,102.4,51.243122,-0.605025,0.0,20.05,1018.6,301
226,20:33:20,1,74000,20,33,20,98.6,51.24309,-0.604969,0.0,20.02,1018.5,301
227,20:33:25,1,74005,20,33,25,95.6,51.24309,-0.604918,0.0,20.02,1018.5,301
228,20:33:30,1,74010,20,33,30,93.4,51.2431,-0.604893,0.0,20.01,1018.5,301
229,20:33:35,1,74010,20,33,30,93.4,51.2431,-0.604893,0.0,20.01,1018.5,301
230,20:33:40,1,74020,20,33,40,65.8,51.242928,-0.604835,0.0,20.0,1018.5,301
231,20:33:45,1,74025,20,33,45,60.2,51.243076,-0.604822,0.0,20.0,1018.5,301
232,20:33:50,1,74030,20,33,50,52.6,51.24302,-0.604722,0.0,19.99,1018.6,301
233,20:33:55,1,74035,20,33,55,68.8,51.24305,-0.604829,0.0,19.99,1018.6,301
234,20:34:00,1,74035,20,33,55,68.8,51.24305,-0.604829,0.0,19.96,1018.6,301
235,20:34:05,1,74035,20,33,55,68.8,51.24305,-0.604829,0.0,19.96,1018.6,300
236,20:34:10,1,74050,20,34,10,84.5,51.243214,-0.604958,0.0,19.94,1018.6,300
237,20:34:15,1,74055,20,34,15,90.0,51.24328,-0.605002,0.0,19.94,1018.6,301
238,20:34:20,1,74060,20,34,20,77.6,51.24322,-0.604961,0.0,19.92,1018.5,301
239,20:34:25,1,74065,20,34,25,79.6,51.24309,-0.604918,0.0,19.92,1018.5,301
240,20:34:30,1,74070,20,34,30,79.6,51.243034,-0.604899,0.0,19.89,1018.6,301
241,20:34:35,1,74070,20,34,30,79.6,51.243034,-0.604899,0.0,19.89,1018.6,301
242,20:34:40,1,74070,20,34,30,79.6,51.243034,-0.604899,0.0,19.86,1018.6,301
243,20:34:45,1,74085,20,34,45,89.0,51.24292,-0.604828,0.0,19.86,1018.6,301
244,20:34:50,1,74090,20,34,50,81.0,51.242977,-0.604778,0.0,19.84,1018.5,301
245,20:34:55,1,74095,20,34,55,65.1,51.242985,-0.604708,0.0,19.84,1018.5,301
246,20:35:00,1,74100,20,35,0,58.5,51.242977,-0.604662,0.0,19.81,1018.6,301
247,20:35:05,1,74105,20,35,5,55.4,51.243008,-0.604672,0.0,19.81,1018.6,301
248,20:35:10,1,74110,20,35,10,57.3,51.243107,-0.604697,0.0,19.8,1018.6,301
249,20:35:15,1,74115,20,35,15,62.1,51.243114,-0.604717,0.0,19.8,1018.6,300
250,20:35:20,1,74120,20,35,20,62.1,51.2431,-0.604745,0.0,19.77,1018.6,300
251,20:35:25,1,74125,20,35,25,62.1,51.243107,-0.604805,0.0,19.77,1018.6,301
252,20:35:30,1,74130,20,35,30,56.5,51.24313,-0.604727,0.0,19.76,1018.6,301
253,20:35:35,1,74135,20,35,35,65.5,51.243164,-0.604787,0.0,19.76,1018.6,301
254,20:35:40,1,74140,20,35,40,71.6,51.243156,-0.604788,0.0,19.75,1018.6,301
255,20:35:45,1,74145,20,35,45,71.6,51.243114,-0.604776,0.0,19.75,1018.6,301
256,20:35:50,1,74150,20,35,50,80.0,51.243156,-0.604805,0.0,19.73,1018.5,301
257,20:35:55,1,74150,20,35,50,80.0,51.243156,-0.604805,0.0,19.73,1018.5,301
258,20:36:00,1,74160,20,36,0,75.1,51.24313,-0.604744,0.0,19.71,1018.5,301
259,20:36:05,1,74165,20,36,5,66.7,51.243164,-0.604719,0.0,19.71,1018.5,301
260,20:36:10,1,74170,20,36,10,80.4,51.24317,-0.604763,0.0,19.7,1018.6,301
261,20:36:15,1,74175,20,36,15,79.4,51.24318,-0.604751,0.0,19.7,1018.6,301
262,20:36:20,1,74180,20,36,20,79.4,51.24317,-0.604826,0.0,19.69,1018.5,301
263,20:36:25,1,74185,20,36,25,84.0,51.24317,-0.604815,0.0,19.69,1018.5,300
264,20:36:30,1,74190,20,36,30,76.0,51.243107,-0.604766,0.0,19.68,1018.6,300
265,20:36:35,1,74195,20,36,35,76.0,51.24315,-0.604846,0.0,19.68,1018.6,301
266,20:36:40,1,74200,20,36,40,76.0,51.243107,-0.604843,0.0,19.67,1018.6,301
267,20:36:45,1,74205,20,36,45,76.0,51.2431,-0.604844,0.0,19.67,1018.6,301
268,20:36:50,1,74205,20,36,45,76.0,51.2431,-0.604844,0.0,19.65,1018.6,301
269,20:36:55,1,74215,20,36,55,59.4,51.24315,-0.604851,0.0,19.65,1018.6,301
270,20:37:00,1,74220,20,37,0,59.4,51.243187,-0.604872,0.0,19.63,1018.6,301
271,20:37:05,1,74225,20,37,5,67.7,51.243214,-0.604898,0.0,19.63,1018.6,301
272,20:37:10,1,74230,20,37,10,70.2,51.243244,-0.60491,0.0,19.61,1018.6,301
273,20:37:15,1,74235,20,37,15,70.2,51.243214,-0.60491,0.0,19.61,1018.6,301
274,20:37:20,1,74240,20,37,20,76.7,51.243206,-0.604882,0.0,19.59,1018.6,301
275,20:37:25,1,74245,20,37,25,76.5,51.243156,-0.604891,0.0,19.59,1018.6,301
276,20:37:30,1,74250,20,37,30,72.8,51.243034,-0.604789,0.0,19.57,1018.6,301
277,20:37:35,1,74255,20,37,35,77.5,51.242992,-0.604728,0.0,19.57,1018.6,300
278,20:37:40,1,74255,20,37,35,77.5,51.242992,-0.604728,0.0,19.56,1018.6,301
279,20:37:45,1,74265,20,37,45,77.5,51.242935,-0.604797,0.0,19.56,1018.6,301
280,20:37:50,1,74270,20,37,50,105.1,51.242977,-0.604873,0.0,19.56,1018.6,301
281,20:37:55,1,74275,20,37,55,104.4,51.243008,-0.604912,0.0,19.56,1018.6,301
282,20:38:00,1,74280,20,38,0,101.7,51.242992,-0.604904,0.0,19.54,1018.6,301
283,20:38:05,1,74285,20,38,5,93.6,51.243027,-0.604893,0.0,19.54,1018.6,301
284,20:38:10,1,74285,20,38,5,93.6,51.243027,-0.604893,0.0,19.53,1018.6,301
285,20:38:15,1,74295,20,38,15,103.5,51.24313,-0.604889,0.0,19.53,1018.6,301
286,20:38:21,1,74300,20,38,20,96.8,51.243164,-0.604886,0.0,19.5,1018.6,301
287,20:38:26,1,74300,20,38,20,96.8,51.243164,-0.604886,0.0,19.5,1018.6,301
288,20:38:31,1,74310,20,38,30,96.8,51.24315,-0.604798,0.0,19.48,1018.6,301
289,20:38:36,1,74315,20,38,35,86.2,51.24317,-0.604831,0.0,19.48,1018.6,301
290,20:38:41,1,74320,20,38,40,93.0,51.2432,-0.604861,0.0,19.47,1018.6,300
291,20:38:46,1,74325,20,38,45,90.9,51.243122,-0.604833,0.0,19.47,1018.6,301
292,20:38:51,1,74330,20,38,50,85.1,51.24313,-0.604883,0.0,19.46,1018.6,301
293,20:38:56,1,74335,20,38,55,84.5,51.243114,-0.604887,0.0,19.46,1018.6,301
294,20:39:01,1,74340,20,39,0,92.9,51.24317,-0.60488,0.0,19.44,1018.6,301
295,20:39:06,1,74345,20,39,5,89.5,51.24315,-0.604855,0.0,19.44,1018.6,301
296,20:39:11,1,74350,20,39,10,82.2,51.243084,-0.604845,0.0,19.43,1018.7,301
297,20:39:16,1,74355,20,39,15,82.2,51.243042,-0.604797,0.0,19.43,1018.7,301
298,20:39:21,1,74360,20,39,20,86.7,51.24309,-0.60479,0.0,19.41,1018.6,301
299,20:39:26,1,74365,20,39,25,91.5,51.24315,-0.604789,0.0,19.41,1018.6,301
300,20:39:31,1,74370,20,39,30,94.8,51.243164,-0.604796,0.0,19.39,1018.6,301
301,20:39:36,1,74375,20,39,35,90.9,51.243214,-0.604872,0.0,19.39,1018.6,301
302,20:39:41,1,74380,20,39,40,90.2,51.243237,-0.604933,0.0,19.37,1018.6,301
303,20:39:46,1,74385,20,39,45,88.7,51.243244,-0.604986,0.0,19.37,1018.6,300
304,20:39:51,1,74390,20,39,50,88.7,51.2432,-0.605008,0.0,19.36,1018.6,300
305,20:39:56,1,74395,20,39,55,91.1,51.24315,-0.604966,0.0,19.36,1018.6,301
306,20:40:01,1,74400,20,40,0,91.1,51.24317,-0.604907,0.0,19.34,1018.6,301
307,20:40:06,1,74405,20,40,5,87.6,51.24314,-0.604836,0.0,19.34,1018.6,301
308,20:40:11,1,74410,20,40,10,92.5,51.24313,-0.604778,0.0,19.33,1018.7,301
309,20:40:16,1,74410,20,40,10,92.5,51.24313,-0.604778,0.0,19.33,1018.7,301
310,20:40:21,1,74420,20,40,20,99.2,51.243237,-0.604835,0.0,19.32,1018.6,301
311,20:40:26,1,74425,20,40,25,99.2,51.24328,-0.604863,0.0,19.32,1018.6,301
312,20:40:31,1,74430,20,40,30,111.6,51.24331,-0.60492,0.0,19.31,1018.6,301
313,20:40:36,1,74435,20,40,35,108.3,51.24325,-0.604939,0.0,19.31,1018.6,301
314,20:40:41,1,74435,20,40,35,108.3,51.24325,-0.604939,0.0,19.3,1018.7,301
315,20:40:46,1,74445,20,40,45,93.2,51.243122,-0.604856,0.0,19.3,1018.7,301
316,20:40:51,1,74450,20,40,50,76.1,51.243084,-0.60477,0.0,19.29,1018.6,301
317,20:40:56,1,74455,20,40,55,63.7,51.243027,-0.604695,0.0,19.29,1018.6,301
318,20:41:01,1,74460,20,41,0,53.9,51.242977,-0.604661,0.0,19.28,1018.6,301
319,20:41:06,1,74465,20,41,5,54.3,51.242992,-0.60469,0.0,19.28,1018.6,301
320,20:41:11,1,74470,20,41,10,54.3,51.242992,-0.604689,0.0,19.26,1018.7,301
321,20:41:16,1,74475,20,41,15,54.3,51.243034,-0.604692,0.0,19.26,1018.7,301
322,20:41:21,1,74480,20,41,20,58.5,51.243042,-0.604686,0.0,19.26,1018.6,301
323,20:41:26,1,74485,20,41,25,67.7,51.243042,-0.604721,0.0,19.26,1018.6,301
324,20:41:31,1,74490,20,41,30,69.4,51.243008,-0.604719,0.0,19.23,1018.6,301
325,20:41:36,1,74495,20,41,35,70.8,51.24305,-0.604759,0.0,19.23,1018.6,301
326,20:41:41,1,74500,20,41,40,77.2,51.243122,-0.604854,0.0,19.22,1018.6,301
327,20:41:46,1,74505,20,41,45,75.5,51.24314,-0.604885,0.0,19.22,1018.6,301
328,20:41:51,1,74510,20,41,50,81.7,51.243122,-0.604871,0.0,19.22,1018.6,301
329,20:41:56,1,74515,20,41,55,92.2,51.24309,-0.604875,0.0,19.22,1018.6,300
330,20:42:01,1,74520,20,42,0,92.2,51.243042,-0.604905,0.0,19.21,1018.7,300
331,20:42:06,1,74525,20,42,5,85.0,51.24309,-0.604826,0.0,19.21,1018.7,301
332,20:42:11,1,74530,20,42,10,84.2,51.243084,-0.604853,0.0,19.2,1018.6,301
333,20:42:16,1,74535,20,42,15,86.4,51.243107,-0.604862,0.0,19.2,1018.6,301
334,20:42:21,1,74540,20,42,20,86.4,51.243057,-0.604869,0.0,19.18,1018.6,301
335,20:42:26,1,74540,20,42,20,86.4,51.243057,-0.604869,0.0,19.18,1018.6,301
336,20:42:31,1,74550,20,42,30,78.7,51.243164,-0.604826,0.0,19.17,1018.6,301
337,20:42:36,1,74550,20,42,30,78.7,51.243164,-0.604826,0.0,19.17,1018.6,301
338,20:42:41,1,74560,20,42,40,78.7,51.243042,-0.604843,0.0,19.15,1018.6,301
339,20:42:46,1,74565,20,42,45,83.3,51.242985,-0.604793,0.0,19.15,1018.6,301
340,20:42:51,1,74570,20,42,50,83.2,51.243,-0.604852,0.0,19.15,1018.6,301
341,20:42:56,1,74575,20,42,55,81.8,51.243042,-0.604827,0.0,19.15,1018.6,301
342,20:43:01,1,74580,20,43,0,77.4,51.243084,-0.604811,0.0,19.13,1018.6,301
343,20:43:06,1,74585,20,43,5,71.8,51.24313,-0.604789,0.0,19.13,1018.6,300
344,20:43:11,1,74590,20,43,10,71.4,51.243084,-0.60485,0.0,19.12,1018.6,301
345,20:43:16,1,74595,20,43,15,73.7,51.243034,-0.60485,0.0,19.12,1018.6,301
346,20:43:21,1,74600,20,43,20,73.3,51.243034,-0.604809,0.0,19.1,1018.6,301
347,20:43:26,1,74605,20,43,25,72.2,51.24296,-0.604748,0.0,19.1,1018.6,301
348,20:43:31,1,74610,20,43,30,76.8,51.242985,-0.60477,0.0,19.08,1018.6,301
349,20:43:36,1,74615,20,43,35,85.3,51.24313,-0.604881,0.0,19.08,1018.6,301
350,20:43:41,1,74620,20,43,40,83.5,51.243206,-0.604931,0.0,19.08,1018.6,301
351,20:43:46,1,74625,20,43,45,83.5,51.243237,-0.604917,0.0,19.08,1018.6,301
352,20:43:51,1,74630,20,43,50,75.0,51.24314,-0.604823,0.0,19.07,1018.6,301
353,20:43:56,1,74635,20,43,55,75.0,51.243057,-0.604735,0.0,19.07,1018.6,301
354,20:44:01,1,74640,20,44,0,72.4,51.2431,-0.604714,0.0,19.06,1018.6,301
355,20:44:06,1,74645,20,44,5,76.0,51.243114,-0.604737,0.0,19.06,1018.6,301
356,20:44:11,1,74650,20,44,10,76.0,51.24309,-0.604773,0.0,19.05,1018.6,301
357,20:44:16,1,74655,20,44,15,69.2,51.243084,-0.604801,0.0,19.05,1018.6,301
358,20:44:21,1,74660,20,44,20,67.7,51.243042,-0.604732,0.0,19.04,1018.6,301
359,20:44:26,1,74660,20,44,20,67.7,51.243042,-0.604732,0.0,19.04,1018.6,301
360,20:44:31,1,74670,20,44,30,84.1,51.243027,-0.604851,0.0,19.02,1018.6,301
361,20:44:36,1,74675,20,44,35,93.5,51.243,-0.604921,0.0,19.02,1018.6,301
362,20:44:41,1,74680,20,44,40,97.5,51.24302,-0.604982,0.0,19.01,1018.6,301
363,20:44:46,1,74685,20,44,45,97.5,51.243065,-0.605063,0.0,19.01,1018.6,301
364,20:44:51,1,74690,20,44,50,113.1,51.243107,-0.605031,0.0,18.99,1018.6,301
365,20:44:56,1,74695,20,44,55,113.1,51.24314,-0.604954,0.0,18.99,1018.6,301
366,20:45:01,1,74700,20,45,0,113.1,51.243076,-0.604952,0.0,18.99,1018.7,301
367,20:45:06,1,74705,20,45,5,107.9,51.243076,-0.604987,0.0,18.99,1018.7,301
368,20:45:11,1,74710,20,45,10,91.8,51.243084,-0.604896,0.0,18.99,1018.6,300
369,20:45:16,1,74715,20,45,15,89.4,51.243065,-0.604832,0.0,18.99,1018.6,301
370,20:45:21,1,74715,20,45,15,89.4,51.243065,-0.604832,0.0,18.98,1018.6,301
371,20:45:26,1,74725,20,45,25,79.7,51.243057,-0.604786,0.0,18.98,1018.6,301
372,20:45:31,1,74730,20,45,30,71.4,51.243027,-0.604826,0.0,18.96,1018.6,301
373,20:45:37,1,74730,20,45,30,71.4,51.243027,-0.604826,0.0,18.96,1018.6,301
374,20:45:42,1,74740,20,45,40,75.1,51.24313,-0.60485,0.0,18.94,1018.6,301
375,20:45:47,1,74745,20,45,45,79.3,51.24313,-0.604847,0.0,18.94,1018.6,301
376,20:45:52,1,74750,20,45,50,82.7,51.24322,-0.604899,0.0,18.93,1018.6,301
377,20:45:57,1,74755,20,45,55,82.0,51.243263,-0.604891,0.0,18.93,1018.6,301
378,20:46:02,1,74755,20,45,55,82.0,51.243263,-0.604891,0.0,18.92,1018.6,301
379,20:46:07,1,74765,20,46,5,82.0,51.24317,-0.604785,0.0,18.92,1018.6,301
380,20:46:12,1,74770,20,46,10,74.4,51.24318,-0.60483,0.0,18.91,1018.6,301
381,20:46:17,1,74775,20,46,15,73.1,51.2432,-0.604788,0.0,18.91,1018.6,300
382,20:46:22,1,74780,20,46,20,73.1,51.24327,-0.604814,0.0,18.9,1018.6,301
383,20:46:27,1,74785,20,46,25,79.2,51.243237,-0.604811,0.0,18.9,1018.6,301
384,20:46:32,1,74790,20,46,30,71.6,51.243206,-0.604789,0.0,18.9,1018.6,301
385,20:46:37,1,74795,20,46,35,66.4,51.243206,-0.60476,0.0,18.9,1018.6,301
386,20:46:42,1,74800,20,46,40,64.4,51.2432,-0.604777,0.0,18.88,1018.6,301
387,20:46:47,1,74805,20,46,45,64.4,51.243122,-0.604728,0.0,18.88,1018.6,301
388,20:46:52,1,74810,20,46,50,64.4,51.243076,-0.604754,0.0,18.87,1018.6,301
389,20:46:57,1,74815,20,46,55,64.8,51.243076,-0.604749,0.0,18.87,1018.6,301
390,20:47:02,1,74815,20,46,55,64.8,51.243076,-0.604749,0.0,18.86,1018.7,301
391,20:47:07,1,74825,20,47,5,63.5,51.243114,-0.604861,0.0,18.86,1018.7,301
392,20:47:12,1,74830,20,47,10,63.9,51.243107,-0.604873,0.0,18.85,1018.6,301
393,20:47:17,1,74835,20,47,15,63.9,51.243027,-0.604932,0.0,18.85,1018.6,301
394,20:47:22,1,74840,20,47,20,65.5,51.243057,-0.604968,0.0,18.85,1018.7,300
395,20:47:27,1,74845,20,47,25,63.4,51.243,-0.604897,0.0,18.85,1018.7,301
396,20:47:32,1,74850,20,47,30,63.4,51.242954,-0.604838,0.0,18.84,1018.6,301
397,20:47:37,1,74855,20,47,35,63.4,51.24297,-0.604791,0.0,18.84,1018.6,301
398,20:47:42,1,74860,20,47,40,53.9,51.242928,-0.604703,0.0,18.83,1018.6,301
399,20:47:47,1,74860,20,47,40,53.9,51.242928,-0.604703,0.0,18.83,1018.6,301
400,20:47:52,270,74872,1,1,1,51.243057,-0.604773,0.0,18.83,1018.6,301.0,0
401,20:47:57,1,74875,20,47,55,51.6,51.243076,-0.604772,0.0,18.83,1018.6,301
402,20:48:02,1,74880,20,48,0,56.0,51.243114,-0.604752,0.0,18.82,1018.6,301
403,20:48:07,1,74885,20,48,5,59.7,51.243084,-0.604828,0.0,18.82,1018.6,301
404,20:48:12,1,74885,20,48,5,59.7,51.243084,-0.604828,0.0,18.81,1018.6,301
405,20:48:17,1,74895,20,48,15,71.3,51.243057,-0.604842,0.0,18.81,1018.6,301
406,20:48:22,1,74900,20,48,20,75.5,51.24302,-0.604803,0.0,18.8,1018.6,301
407,20:48:27,1,74905,20,48,25,81.2,51.243042,-0.60482,0.0,18.8,1018.6,300
408,20:48:32,1,74910,20,48,30,79.9,51.24302,-0.604815,0.0,18.79,1018.6,301
409,20:48:37,1,74915,20,48,35,73.7,51.24302,-0.604775,0.0,18.79,1018.6,301
410,20:48:42,1,74920,20,48,40,73.7,51.243027,-0.604758,0.0,18.78,1018.6,301
411,20:48:47,1,74925,20,48,45,72.7,51.243042,-0.6048,0.0,18.78,1018.6,301
412,20:48:52,1,74930,20,48,50,72.7,51.243065,-0.604821,0.0,18.77,1018.7,301
413,20:48:57,1,74935,20,48,55,80.1,NaN,0.0,18.77,1018.7,301.0,0
414,20:49:02,1,74940,20,49,0,81.9,51.2431,-0.604813,0.0,18.76,1018.6,301
415,20:49:07,1,74945,20,49,5,92.6,51.24314,-0.604871,0.0,18.76,1018.6,301
416,20:49:12,1,74950,20,49,10,101.8,51.243164,-0.604838,0.0,18.76,1018.7,301
417,20:49:17,1,74955,20,49,15,111.4,51.2432,-0.604851,0.0,18.76,1018.7,301
418,20:49:22,1,74960,20,49,20,118.9,51.24322,-0.604881,0.0,18.75,1018.7,301
419,20:49:27,1,74960,20,49,20,118.9,51.24322,-0.604881,0.0,18.75,1018.7,301
420,20:49:32,1,74970,20,49,30,101.0,51.24331,-0.604986,0.0,18.74,1018.6,300
421,20:49:37,1,74975,20,49,35,82.9,51.243237,-0.604978,0.0,18.74,1018.6,301
422,20:49:42,1,74980,20,49,40,81.9,51.24318,-0.604936,0.0,18.73,1018.6,301
423,20:49:47,1,74985,20,49,45,81.9,51.24315,-0.604913,0.0,18.73,1018.6,301
424,20:49:52,1,74985,20,49,45,81.9,51.24315,-0.604913,0.0,18.72,1018.6,301
425,20:49:57,1,74995,20,49,55,68.1,51.24309,-0.604885,0.0,18.72,1018.6,301
426,20:50:02,1,75000,20,50,0,58.0,51.24323,-0.604851,0.0,18.72,1018.6,301
427,20:50:07,1,75005,20,50,5,56.1,51.243187,-0.60486,0.0,18.72,1018.6,301
428,20:50:12,1,75005,20,50,5,56.1,51.243187,-0.60486,0.0,18.71,1018.7,301
429,20:50:17,1,75015,20,50,15,64.0,51.24323,-0.604882,0.0,18.71,1018.7,301
430,20:50:22,1,75020,20,50,20,72.8,51.243263,-0.604871,0.0,18.7,1018.7,301
431,20:50:27,1,75020,20,50,20,72.8,51.243263,-0.604871,0.0,18.7,1018.7,301
432,20:50:32,1,75030,20,50,30,85.2,51.24317,-0.604864,0.0,18.69,1018.6,301
433,20:50:37,1,75035,20,50,35,88.8,51.24315,-0.604844,0.0,18.69,1018.6,300
434,20:50:42,1,75040,20,50,40,82.1,51.24317,-0.604831,0.0,18.68,1018.7,301
435,20:50:47,1,75045,20,50,45,79.5,51.243164,-0.604815,0.0,18.68,1018.7,301
436,20:50:52,1,75050,20,50,50,81.3,51.24317,-0.604859,0.0,18.67,1018.7,301
437,20:50:57,1,75050,20,50,50,81.3,51.24317,-0.604859,0.0,18.67,1018.7,301
438,20:51:02,1,75060,20,51,0,86.0,51.2431,-0.604859,0.0,18.67,1018.7,301
439,20:51:07,1,75065,20,51,5,87.1,51.243076,-0.604864,0.0,18.67,1018.7,301
440,20:51:12,1,75070,20,51,10,87.1,51.24305,-0.604888,0.0,18.66,1018.6,301
441,20:51:17,1,75075,20,51,15,87.1,51.243084,-0.604919,0.0,18.66,1018.6,301
442,20:51:22,1,75080,20,51,20,87.1,51.24313,-0.604809,0.0,18.65,1018.6,301
443,20:51:27,1,75085,20,51,25,87.1,51.24317,-0.604776,0.0,18.65,1018.6,301
444,20:51:32,1,75090,20,51,30,72.3,51.24314,-0.60483,0.0,18.65,1018.7,301
445,20:51:37,1,75095,20,51,35,72.3,51.243214,-0.604808,0.0,18.65,1018.7,301
446,20:51:42,1,75095,20,51,35,72.3,51.243214,-0.604808,0.0,18.64,1018.6,300
447,20:51:47,1,75105,20,51,45,90.0,51.243206,-0.604901,0.0,18.64,1018.6,301
448,20:51:52,1,75110,20,51,50,90.0,51.24313,-0.605004,0.0,18.63,1018.7,301
449,20:51:57,1,75110,20,51,50,90.0,51.24313,-0.605004,0.0,18.63,1018.7,301
450,20:52:02,1,75120,20,52,0,81.2,51.24305,-0.604953,0.0,18.63,1018.7,301
451,20:52:07,1,75125,20,52,5,76.9,51.243057,-0.604972,0.0,18.63,1018.7,301
452,20:52:12,1,75130,20,52,10,76.9,51.243107,-0.604988,0.0,18.62,1018.7,301
453,20:52:17,1,75135,20,52,15,76.9,51.24309,-0.604924,0.0,18.62,1018.7,301
454,20:52:22,1,75140,20,52,20,70.9,51.24313,-0.604895,0.0,18.61,1018.6,301
455,20:52:27,1,75140,20,52,20,70.9,51.24313,-0.604895,0.0,18.61,1018.6,301
456,20:52:32,1,75150,20,52,30,77.5,51.2432,-0.604823,0.0,18.61,1018.6,301
457,20:52:37,1,75155,20,52,35,77.5,51.243237,-0.604751,0.0,18.61,1018.6,301
458,20:52:42,1,75155,20,52,35,77.5,51.243237,-0.604751,0.0,18.6,1018.6,301
459,20:52:48,1,75155,20,52,35,77.5,51.243237,-0.604751,0.0,18.6,1018.6,301
460,20:52:53,1,75170,20,52,50,74.9,51.24331,-0.604838,0.0,18.6,1018.7,301
461,20:52:58,1,75175,20,52,55,70.4,51.24333,-0.604809,0.0,18.6,1018.7,301
462,20:53:03,1,75180,20,53,0,73.2,51.2433,-0.604785,0.0,18.59,1018.7,301
463,20:53:08,1,75185,20,53,5,70.2,51.243164,-0.604782,0.0,18.59,1018.7,301
464,20:53:13,1,75190,20,53,10,70.2,51.24309,-0.604762,0.0,18.58,1018.7,301
465,20:53:18,1,75195,20,53,15,69.2,51.243027,-0.604807,0.0,18.58,1018.7,301
466,20:53:23,1,75200,20,53,20,69.2,51.243,-0.604779,0.0,18.58,1018.7,301
467,20:53:28,1,75205,20,53,25,74.5,51.242943,-0.60485,0.0,18.58,1018.7,301
468,20:53:33,1,75210,20,53,30,76.5,51.24296,-0.604875,0.0,18.58,1018.7,301
469,20:53:38,1,75215,20,53,35,75.7,51.24296,-0.604863,0.0,18.58,1018.7,301
470,20:53:43,1,75215,20,53,35,75.7,51.24296,-0.604863,0.0,18.57,1018.7,301
471,20:53:48,1,75225,20,53,45,75.7,51.243042,-0.604833,0.0,18.57,1018.7,300
472,20:53:53,1,75230,20,53,50,74.0,51.24302,-0.604796,0.0,18.57,1018.7,300
473,20:53:58,1,75230,20,53,50,74.0,51.24302,-0.604796,0.0,18.57,1018.7,301
474,20:54:03,1,75240,20,54,0,86.1,51.243114,-0.604829,0.0,18.56,1018.7,301
475,20:54:08,1,75245,20,54,5,86.1,51.24309,-0.604831,0.0,18.56,1018.7,301
476,20:54:13,1,75250,20,54,10,86.1,51.243122,-0.604891,0.0,18.55,1018.7,301
477,20:54:18,1,75255,20,54,15,95.4,51.243084,-0.60493,0.0,18.55,1018.7,301
478,20:54:23,1,75260,20,54,20,97.3,51.243034,-0.604927,0.0,18.54,1018.7,301
479,20:54:28,1,75265,20,54,25,89.6,51.243008,-0.604915,0.0,18.54,1018.7,301
480,20:54:33,1,75270,20,54,30,89.6,51.243008,-0.604899,0.0,18.54,1018.7,301
481,20:54:38,1,75275,20,54,35,89.6,51.242992,-0.604919,0.0,18.54,1018.7,301
482,20:54:43,1,75280,20,54,40,89.6,51.243008,-0.60496,0.0,18.54,1018.7,301
483,20:54:48,1,75280,20,54,40,89.6,51.243008,-0.60496,0.0,18.54,1018.7,301
484,20:54:53,1,75290,20,54,50,84.1,51.24314,-0.604898,0.0,18.53,1018.7,301
485,20:54:58,1,75290,20,54,50,84.1,51.24314,-0.604898,0.0,18.53,1018.7,300
486,20:55:03,1,75300,20,55,0,77.7,51.243122,-0.604782,0.0,18.53,1018.7,301
487,20:55:08,1,75305,20,55,5,72.8,51.24318,-0.604778,0.0,18.53,1018.7,301
488,20:55:13,1,75310,20,55,10,57.5,51.243263,-0.60473,0.0,18.52,1018.7,301
489,20:55:18,1,75315,20,55,15,54.7,51.24331,-0.604764,0.0,18.52,1018.7,301
490,20:55:23,1,75315,20,55,15,54.7,51.24331,-0.604764,0.0,18.51,1018.7,301
491,20:55:28,1,75325,20,55,25,77.5,51.24327,-0.60475,0.0,18.51,1018.7,301
492,20:55:33,1,75330,20,55,30,79.8,51.24317,-0.60473,0.0,18.51,1018.7,301
493,20:55:38,1,75335,20,55,35,78.0,51.243164,-0.60472,0.0,18.51,1018.7,301
494,20:55:43,1,75340,20,55,40,80.6,51.24315,-0.604729,0.0,18.5,1018.7,301
495,20:55:48,1,75345,20,55,45,79.9,51.243156,-0.604752,0.0,18.5,1018.7,301
496,20:55:53,1,75350,20,55,50,79.9,51.24315,-0.604749,0.0,18.49,1018.7,301
497,20:55:58,1,75350,20,55,50,79.9,51.24315,-0.604749,0.0,18.49,1018.7,301
498,20:56:03,1,75360,20,56,0,69.9,51.24318,-0.604766,0.0,18.49,1018.7,300
499,20:56:08,1,75365,20,56,5,74.0,51.243164,-0.604771,0.0,18.49,1018.7,300
500,20:56:13,1,75370,20,56,10,73.0,51.24318,-0.604821,0.0,18.49,1018.7,301
501,20:56:18,1,75375,20,56,15,74.3,51.24317,-0.604853,0.0,18.49,1018.7,301
502,20:56:23,1,75380,20,56,20,75.5,51.24314,-0.604879,0.0,18.49,1018.7,301
503,20:56:28,1,75385,20,56,25,75.5,51.2432,-0.604887,0.0,18.49,1018.7,301
504,20:56:33,1,75390,20,56,30,75.5,51.24322,-0.604807,0.0,18.48,1018.7,301
505,20:56:38,1,75395,20,56,35,67.4,51.24314,-0.604721,0.0,18.48,1018.7,301
506,20:56:43,1,75400,20,56,40,72.5,51.243084,-0.604745,0.0,18.48,1018.7,301
507,20:56:48,1,75400,20,56,40,72.5,51.243084,-0.604745,0.0,18.48,1018.7,301
508,20:56:53,1,75410,20,56,50,75.9,51.2431,-0.604755,0.0,18.48,1018.6,301
509,20:56:58,1,75415,20,56,55,75.9,51.243065,-0.604802,0.0,18.48,1018.6,301
510,20:57:03,1,75420,20,57,0,88.0,51.243076,-0.604784,0.0,18.46,1018.6,301
511,20:57:08,1,75425,20,57,5,78.7,51.243164,-0.604883,0.0,18.46,1018.6,301
512,20:57:13,1,75430,20,57,10,84.2,51.243107,-0.604948,0.0,18.47,1018.6,300
513,20:57:18,1,75435,20,57,15,76.2,51.243008,-0.60494,0.0,18.47,1018.6,294
514,20:57:23,1,75440,20,57,20,76.2,51.243027,-0.604925,0.0,18.47,1018.6,279
515,20:57:28,1,75445,20,57,25,76.3,51.24305,-0.604955,0.0,18.47,1018.6,265
516,20:57:33,1,75450,20,57,30,83.9,51.243065,-0.604967,0.0,18.46,1018.6,250
517,20:57:38,1,75455,20,57,35,83.9,51.243164,-0.60502,0.0,18.46,1018.6,236
518,20:57:43,1,75460,20,57,40,83.9,51.24314,-0.604961,0.0,18.46,1018.7,221
519,20:57:48,1,75465,20,57,45,93.2,51.24314,-0.604918,0.0,18.46,1018.7,207
520,20:57:53,1,75470,20,57,50,83.5,51.24314,-0.604851,0.0,18.46,1018.7,192
521,20:57:58,1,75475,20,57,55,80.4,51.243107,-0.604773,0.0,18.46,1018.7,178
522,20:58:03,1,75480,20,58,0,69.3,51.243122,-0.604781,0.0,18.46,1018.7,164
523,20:58:08,1,75485,20,58,5,70.9,51.24315,-0.604772,0.0,18.46,1018.7,149
524,20:58:13,1,75490,20,58,10,74.3,51.243122,-0.604808,0.0,18.46,1018.7,135
525,20:58:18,1,75490,20,58,10,74.3,51.243122,-0.604808,0.0,18.46,1018.7,126
526,20:58:23,1,75500,20,58,20,74.2,51.24314,-0.604842,0.0,18.45,1018.6,127
527,20:58:28,1,75505,20,58,25,76.0,51.24314,-0.604839,0.0,18.45,1018.6,126
